<?xml version="1.0" encoding="UTF-8" standalone="no"?>
<!-- Created with Inkscape (http://www.inkscape.org/) -->

<svg
   width="1000"
   height="1000"
   viewBox="0 0 1000 1000"
   version="1.1"
   id="svg1"
   inkscape:version="1.3.2 (091e20ef0f, 2023-11-25)"
   sodipodi:docname="abstract.svg"
   xmlns:inkscape="http://www.inkscape.org/namespaces/inkscape"
   xmlns:sodipodi="http://sodipodi.sourceforge.net/DTD/sodipodi-0.dtd"
   xmlns="http://www.w3.org/2000/svg"
   xmlns:svg="http://www.w3.org/2000/svg">
  <sodipodi:namedview
     id="namedview1"
     pagecolor="#505050"
     bordercolor="#ffffff"
     borderopacity="1"
     inkscape:showpageshadow="0"
     inkscape:pageopacity="0"
     inkscape:pagecheckerboard="1"
     inkscape:deskcolor="#505050"
     inkscape:document-units="mm"
     inkscape:zoom="0.50244109"
     inkscape:cx="659.77884"
     inkscape:cy="465.72624"
     inkscape:window-width="1366"
     inkscape:window-height="768"
     inkscape:window-x="0"
     inkscape:window-y="0"
     inkscape:window-maximized="1"
     inkscape:current-layer="layer1"
     showgrid="false"
     showguides="false" />
  <defs
     id="defs1">
    <inkscape:path-effect
       effect="bspline"
       id="path-effect6"
       is_visible="true"
       lpeversion="1.3"
       weight="33.333333"
       steps="2"
       helper_size="0"
       apply_no_weight="true"
       apply_with_weight="true"
       only_selected="false"
       uniform="false" />
    <inkscape:path-effect
       effect="bspline"
       id="path-effect21"
       is_visible="true"
       lpeversion="1.3"
       weight="33.333333"
       steps="2"
       helper_size="0"
       apply_no_weight="true"
       apply_with_weight="true"
       only_selected="false"
       uniform="false" />
    <inkscape:path-effect
       effect="bspline"
       id="path-effect20"
       is_visible="true"
       lpeversion="1.3"
       weight="33.333333"
       steps="2"
       helper_size="0"
       apply_no_weight="true"
       apply_with_weight="true"
       only_selected="false"
       uniform="false" />
    <inkscape:path-effect
       effect="bspline"
       id="path-effect19"
       is_visible="true"
       lpeversion="1.3"
       weight="33.333333"
       steps="2"
       helper_size="0"
       apply_no_weight="true"
       apply_with_weight="true"
       only_selected="false"
       uniform="false" />
    <inkscape:path-effect
       effect="bspline"
       id="path-effect18"
       is_visible="true"
       lpeversion="1.3"
       weight="33.333333"
       steps="2"
       helper_size="0"
       apply_no_weight="true"
       apply_with_weight="true"
       only_selected="false"
       uniform="false" />
    <inkscape:path-effect
       effect="bspline"
       id="path-effect17"
       is_visible="true"
       lpeversion="1.3"
       weight="33.333333"
       steps="2"
       helper_size="0"
       apply_no_weight="true"
       apply_with_weight="true"
       only_selected="false"
       uniform="false" />
    <inkscape:path-effect
       effect="bspline"
       id="path-effect16"
       is_visible="true"
       lpeversion="1.3"
       weight="33.333333"
       steps="2"
       helper_size="0"
       apply_no_weight="true"
       apply_with_weight="true"
       only_selected="false"
       uniform="false" />
    <inkscape:path-effect
       effect="bspline"
       id="path-effect15"
       is_visible="true"
       lpeversion="1.3"
       weight="33.333333"
       steps="2"
       helper_size="0"
       apply_no_weight="true"
       apply_with_weight="true"
       only_selected="false"
       uniform="false" />
    <inkscape:path-effect
       effect="bspline"
       id="path-effect14"
       is_visible="true"
       lpeversion="1.3"
       weight="33.333333"
       steps="2"
       helper_size="0"
       apply_no_weight="true"
       apply_with_weight="true"
       only_selected="false"
       uniform="false" />
    <inkscape:path-effect
       effect="bspline"
       id="path-effect13"
       is_visible="true"
       lpeversion="1.3"
       weight="33.333333"
       steps="2"
       helper_size="0"
       apply_no_weight="true"
       apply_with_weight="true"
       only_selected="false"
       uniform="false" />
    <inkscape:path-effect
       effect="bspline"
       id="path-effect12"
       is_visible="true"
       lpeversion="1.3"
       weight="33.333333"
       steps="2"
       helper_size="0"
       apply_no_weight="true"
       apply_with_weight="true"
       only_selected="false"
       uniform="false" />
    <inkscape:path-effect
       effect="bspline"
       id="path-effect9"
       is_visible="true"
       lpeversion="1.3"
       weight="33.333333"
       steps="2"
       helper_size="0"
       apply_no_weight="true"
       apply_with_weight="true"
       only_selected="false"
       uniform="false" />
    <inkscape:path-effect
       effect="bspline"
       id="path-effect5"
       is_visible="true"
       lpeversion="1.3"
       weight="33.333333"
       steps="2"
       helper_size="0"
       apply_no_weight="true"
       apply_with_weight="true"
       only_selected="false"
       uniform="false" />
    <inkscape:path-effect
       effect="bspline"
       id="path-effect4"
       is_visible="true"
       lpeversion="1.3"
       weight="33.333333"
       steps="2"
       helper_size="0"
       apply_no_weight="true"
       apply_with_weight="true"
       only_selected="false"
       uniform="false" />
    <inkscape:path-effect
       effect="bspline"
       id="path-effect2"
       is_visible="true"
       lpeversion="1.3"
       weight="33.333333"
       steps="2"
       helper_size="0"
       apply_no_weight="true"
       apply_with_weight="true"
       only_selected="false"
       uniform="false" />
    <inkscape:path-effect
       effect="spiro"
       id="path-effect3"
       is_visible="true"
       lpeversion="1" />
    <inkscape:path-effect
       effect="bspline"
       id="path-effect1"
       is_visible="true"
       lpeversion="1.3"
       weight="33.333333"
       steps="2"
       helper_size="0"
       apply_no_weight="true"
       apply_with_weight="true"
       only_selected="false"
       uniform="false" />
    <inkscape:path-effect
       effect="bspline"
       id="path-effect11"
       is_visible="true"
       lpeversion="1.3"
       weight="33.333333"
       steps="2"
       helper_size="0"
       apply_no_weight="true"
       apply_with_weight="true"
       only_selected="false"
       uniform="false" />
    <inkscape:path-effect
       effect="bspline"
       id="path-effect10"
       is_visible="true"
       lpeversion="1.3"
       weight="33.333333"
       steps="2"
       helper_size="0"
       apply_no_weight="true"
       apply_with_weight="true"
       only_selected="false"
       uniform="false" />
    <inkscape:path-effect
       effect="spiro"
       id="path-effect8"
       is_visible="true"
       lpeversion="1" />
  </defs>
  <g
     inkscape:label="Layer 1"
     inkscape:groupmode="layer"
     id="layer1">
    <rect
       style="fill:none;stroke:#000000;stroke-width:4.33848;stroke-dasharray:none"
       id="rect18"
       width="602.22894"
       height="212.09938"
       x="206.60449"
       y="309.29807" />
    <rect
       style="fill:none;stroke:#000000;stroke-width:5;stroke-dasharray:none"
       id="rect18-3"
       width="250.6077"
       height="106.95959"
       x="553.63403"
       y="638.08044" />
    <path
       style="fill:none;stroke:#000000;stroke-width:5;stroke-linecap:butt;stroke-linejoin:miter;stroke-dasharray:none;stroke-opacity:1"
       d="m 508.60327,339.60578 c -0.0173,-52.35592 -0.0347,-104.71185 -0.052,-157.06777"
       id="path18"
       inkscape:path-effect="#path-effect19"
       inkscape:original-d="m 508.60327,339.60578 c -0.0173,-52.35592 -0.0346,-104.71185 -0.052,-157.06777"
       sodipodi:nodetypes="cc"
       transform="translate(0,-30)" />
    <path
       style="fill:none;stroke:#000000;stroke-width:5;stroke-linecap:butt;stroke-linejoin:miter;stroke-dasharray:none;stroke-opacity:1"
       d="m 303.48955,620.14684 c -0.0358,93.43928 -0.0715,186.87854 -0.10728,280.31782"
       id="path19"
       inkscape:path-effect="#path-effect20"
       inkscape:original-d="m 303.48955,620.14684 c -0.0358,93.43928 -0.0715,186.87854 -0.10728,280.31782"
       sodipodi:nodetypes="cc"
       transform="translate(6.636947,-98.775694)" />
    <path
       style="fill:none;stroke:#000000;stroke-width:5;stroke-linecap:butt;stroke-linejoin:miter;stroke-dasharray:none;stroke-opacity:1"
       d="m 672.13941,622.50546 c 0.11961,38.63964 0.23923,77.27924 0.35884,115.91887"
       id="path20"
       inkscape:path-effect="#path-effect21"
       inkscape:original-d="m 672.13941,622.50546 c 0.11961,38.63964 0.23922,77.27924 0.35884,115.91887"
       sodipodi:nodetypes="cc"
       transform="translate(0.20459803,-101.01707)" />
    <text
       xml:space="preserve"
       style="font-size:46.6667px;line-height:1.25;font-family:NewComputerModern10;-inkscape-font-specification:NewComputerModern10"
       x="405.15991"
       y="424.44635"
       id="text21"><tspan
         sodipodi:role="line"
         id="tspan21"
         x="405.15991"
         y="424.44635"
         style="font-style:normal;font-variant:normal;font-weight:normal;font-stretch:normal;font-size:46.6667px;font-family:NewComputerModern10;-inkscape-font-specification:NewComputerModern10">root agent</tspan></text>
    <text
       xml:space="preserve"
       style="font-size:46.66666667px;line-height:1.25;font-family:NewComputerModern10;-inkscape-font-specification:NewComputerModern10"
       x="370.16614"
       y="285.20386"
       id="text21-2-3"><tspan
         sodipodi:role="line"
         id="tspan21-4-1"
         x="370.16614"
         y="285.20386"
         style="font-style:normal;font-variant:normal;font-weight:normal;font-stretch:normal;font-family:NewComputerModern10;-inkscape-font-specification:NewComputerModern10;font-size:46.66666667px" /></text>
    <text
       xml:space="preserve"
       style="font-size:46.6667px;line-height:1.25;font-family:NewComputerModern10;-inkscape-font-specification:NewComputerModern10"
       x="413.86951"
       y="280.39987"
       id="text1"><tspan
         sodipodi:role="line"
         id="tspan1"
         x="413.86951"
         y="280.39987"
         style="font-style:normal;font-variant:normal;font-weight:normal;font-stretch:normal;font-size:46.6667px;font-family:NewComputerModern10;-inkscape-font-specification:NewComputerModern10">port</tspan></text>
    <text
       xml:space="preserve"
       style="font-size:46.6667px;line-height:1.25;font-family:NewComputerModern10;-inkscape-font-specification:NewComputerModern10"
       x="320.4321"
       y="565.33508"
       id="text1-5"><tspan
         sodipodi:role="line"
         id="tspan1-9"
         x="320.4321"
         y="565.33508"
         style="font-style:normal;font-variant:normal;font-weight:normal;font-stretch:normal;font-size:46.6667px;font-family:NewComputerModern10;-inkscape-font-specification:NewComputerModern10">port</tspan></text>
    <text
       xml:space="preserve"
       style="font-size:46.6667px;line-height:1.25;font-family:NewComputerModern10;-inkscape-font-specification:NewComputerModern10"
       x="574.14697"
       y="567.41895"
       id="text1-9"><tspan
         sodipodi:role="line"
         id="tspan1-7"
         x="574.14697"
         y="567.41895"
         style="font-style:normal;font-variant:normal;font-weight:normal;font-stretch:normal;font-size:46.6667px;font-family:NewComputerModern10;-inkscape-font-specification:NewComputerModern10">port</tspan></text>
    <text
       xml:space="preserve"
       style="font-size:46.66666667px;line-height:1.25;font-family:NewComputerModern10;-inkscape-font-specification:NewComputerModern10"
       x="180.92979"
       y="881.30353"
       id="text1-2"><tspan
         sodipodi:role="line"
         id="tspan1-93"
         x="180.92979"
         y="881.30353"
         style="font-style:normal;font-variant:normal;font-weight:normal;font-stretch:normal;font-family:NewComputerModern10;-inkscape-font-specification:NewComputerModern10;font-size:46.66666667px">subgraph</tspan></text>
    <text
       xml:space="preserve"
       style="font-size:46.66666667px;line-height:1.25;font-family:NewComputerModern10;-inkscape-font-specification:NewComputerModern10"
       x="734.89484"
       y="289.91666"
       id="text21-3"><tspan
         sodipodi:role="line"
         id="tspan21-6"
         x="734.89484"
         y="289.91666"
         style="font-style:normal;font-variant:normal;font-weight:normal;font-stretch:normal;font-family:NewComputerModern10;-inkscape-font-specification:NewComputerModern10;font-size:46.66666667px">symbol</tspan></text>
    <text
       xml:space="preserve"
       style="font-size:46.6667px;line-height:1.25;font-family:NewComputerModern10;-inkscape-font-specification:NewComputerModern10"
       x="464.37128"
       y="114.45226"
       id="text2"><tspan
         sodipodi:role="line"
         id="tspan2"
         x="464.37128"
         y="114.45226">root</tspan></text>
    <text
       xml:space="preserve"
       style="font-size:46.6667px;line-height:1.25;font-family:NewComputerModern10;-inkscape-font-specification:NewComputerModern10"
       x="621.8786"
       y="702.7395"
       id="text3"><tspan
         sodipodi:role="line"
         id="tspan3"
         x="621.8786"
         y="702.7395">agent</tspan></text>
    <path
       style="fill:none;stroke:#000000;stroke-width:5;stroke-linecap:butt;stroke-linejoin:miter;stroke-dasharray:none;stroke-opacity:1"
       d="m 616.32866,746.12073 c -0.011,23.48325 -0.0221,46.96629 -19.15161,71.72041 -19.12954,24.75413 -56.57484,50.23302 -14.98757,62.66258 41.58727,12.42957 147.01484,10.95268 190.36999,-2.98768 43.35515,-13.94036 8.22941,-34.36756 -12.76025,-59.20921 -20.98967,-24.84165 -20.60352,-47.94259 -20.20127,-72.00681"
       id="path3"
       inkscape:path-effect="#path-effect6"
       inkscape:original-d="m 616.32866,746.12073 c -0.011,23.48325 -0.0221,46.96629 -0.0331,70.44943 -38.24805,26.02511 -75.69335,51.504 -114.74416,78.07533 122.22535,-1.7122 227.65292,-3.18909 359.13843,-5.03101 -44.77521,-26.0388 -79.90095,-46.466 -122.29862,-71.12215 0.41834,-25.02715 0.80449,-48.12809 1.20674,-72.19231"
       sodipodi:nodetypes="cccccc" />
    <text
       xml:space="preserve"
       style="font-size:46.66666667px;line-height:1.25;font-family:NewComputerModern10;-inkscape-font-specification:NewComputerModern10"
       x="768.22296"
       y="796.16827"
       id="text1-9-1"><tspan
         sodipodi:role="line"
         id="tspan1-7-5"
         x="768.22296"
         y="796.16827"
         style="font-style:normal;font-variant:normal;font-weight:normal;font-stretch:normal;font-family:NewComputerModern10;-inkscape-font-specification:NewComputerModern10;font-size:46.66666667px">port</tspan></text>
    <text
       xml:space="preserve"
       style="font-size:46.66666667px;line-height:1.25;font-family:NewComputerModern10;-inkscape-font-specification:NewComputerModern10"
       x="477.18842"
       y="799.16858"
       id="text1-9-1-6"><tspan
         sodipodi:role="line"
         id="tspan1-7-5-5"
         x="477.18842"
         y="799.16858"
         style="font-style:normal;font-variant:normal;font-weight:normal;font-stretch:normal;font-family:NewComputerModern10;-inkscape-font-specification:NewComputerModern10;font-size:46.66666667px">port</tspan></text>
    <text
       xml:space="preserve"
       style="font-size:46.6667px;line-height:1.25;font-family:NewComputerModern10;-inkscape-font-specification:NewComputerModern10"
       x="656.21045"
       y="933.53668"
       id="text6"><tspan
         sodipodi:role="line"
         id="tspan6"
         x="656.21045"
         y="933.53668"
         style="font-size:46.6667px">wire</tspan></text>
    <text
       xml:space="preserve"
       style="font-size:46.6667px;line-height:1.25;font-family:NewComputerModern10;-inkscape-font-specification:NewComputerModern10"
       x="211.77344"
       y="679.20575"
       id="text6-7"><tspan
         sodipodi:role="line"
         id="tspan6-4"
         x="211.77344"
         y="679.20575"
         style="font-size:46.6667px">wire</tspan></text>
    <text
       xml:space="preserve"
       style="font-size:46.6667px;line-height:1.25;font-family:NewComputerModern10;-inkscape-font-specification:NewComputerModern10"
       x="686.24585"
       y="618.18359"
       id="text1-9-4"><tspan
         sodipodi:role="line"
         id="tspan1-7-7"
         x="686.24585"
         y="618.18359"
         style="font-style:normal;font-variant:normal;font-weight:normal;font-stretch:normal;font-size:46.6667px;font-family:NewComputerModern10;-inkscape-font-specification:NewComputerModern10">port</tspan></text>
  </g>
</svg>
