<?xml version="1.0" encoding="UTF-8" standalone="no"?>
<!-- Created with Inkscape (http://www.inkscape.org/) -->

<svg
   width="2100"
   height="1000"
   viewBox="0 0 2100 1000"
   version="1.1"
   id="svg1"
   inkscape:version="1.3.2 (091e20ef0f, 2023-11-25)"
   sodipodi:docname="application-of-lambda.svg"
   xml:space="preserve"
   xmlns:inkscape="http://www.inkscape.org/namespaces/inkscape"
   xmlns:sodipodi="http://sodipodi.sourceforge.net/DTD/sodipodi-0.dtd"
   xmlns="http://www.w3.org/2000/svg"
   xmlns:svg="http://www.w3.org/2000/svg"><sodipodi:namedview
     id="namedview1"
     pagecolor="#505050"
     bordercolor="#ffffff"
     borderopacity="1"
     inkscape:showpageshadow="0"
     inkscape:pageopacity="0"
     inkscape:pagecheckerboard="1"
     inkscape:deskcolor="#505050"
     inkscape:document-units="mm"
     inkscape:zoom="0.343413"
     inkscape:cx="773.12158"
     inkscape:cy="305.7543"
     inkscape:window-width="1366"
     inkscape:window-height="768"
     inkscape:window-x="0"
     inkscape:window-y="0"
     inkscape:window-maximized="1"
     inkscape:current-layer="layer1"
     showgrid="false"
     showguides="true"><sodipodi:guide
       position="1248.8523,183.55537"
       orientation="0,-1"
       id="guide1"
       inkscape:locked="false" /><sodipodi:guide
       position="967.25726,791.78232"
       orientation="0,-1"
       id="guide2"
       inkscape:locked="false" /><sodipodi:guide
       position="381.46489,436.53851"
       orientation="1,0"
       id="guide15"
       inkscape:locked="false" /><sodipodi:guide
       position="1611.4885,411.4724"
       orientation="1,0"
       id="guide16"
       inkscape:locked="false" /><sodipodi:guide
       position="461.74343,108.42852"
       orientation="0,-1"
       id="guide4"
       inkscape:locked="false" /><sodipodi:guide
       position="1507.2294,501.70832"
       orientation="1,0"
       id="guide3"
       inkscape:locked="false" /><sodipodi:guide
       position="1739.9028,374.04681"
       orientation="1,0"
       id="guide5"
       inkscape:locked="false" /></sodipodi:namedview><defs
     id="defs1"><inkscape:path-effect
       effect="bspline"
       id="path-effect15"
       is_visible="true"
       lpeversion="1.3"
       weight="33.333333"
       steps="2"
       helper_size="0"
       apply_no_weight="true"
       apply_with_weight="true"
       only_selected="false"
       uniform="false" /><inkscape:path-effect
       effect="bspline"
       id="path-effect14"
       is_visible="true"
       lpeversion="1.3"
       weight="33.333333"
       steps="2"
       helper_size="0"
       apply_no_weight="true"
       apply_with_weight="true"
       only_selected="false"
       uniform="false" /><inkscape:path-effect
       effect="bspline"
       id="path-effect5"
       is_visible="true"
       lpeversion="1.3"
       weight="33.333333"
       steps="2"
       helper_size="0"
       apply_no_weight="true"
       apply_with_weight="true"
       only_selected="false"
       uniform="false" /><inkscape:path-effect
       effect="bspline"
       id="path-effect13"
       is_visible="true"
       lpeversion="1.3"
       weight="33.333333"
       steps="2"
       helper_size="0"
       apply_no_weight="true"
       apply_with_weight="true"
       only_selected="false"
       uniform="false" /><inkscape:path-effect
       effect="bspline"
       id="path-effect12"
       is_visible="true"
       lpeversion="1.3"
       weight="33.333333"
       steps="2"
       helper_size="0"
       apply_no_weight="true"
       apply_with_weight="true"
       only_selected="false"
       uniform="false" /><inkscape:path-effect
       effect="bspline"
       id="path-effect9"
       is_visible="true"
       lpeversion="1.3"
       weight="33.333333"
       steps="2"
       helper_size="0"
       apply_no_weight="true"
       apply_with_weight="true"
       only_selected="false"
       uniform="false" /><inkscape:path-effect
       effect="bspline"
       id="path-effect7"
       is_visible="true"
       lpeversion="1.3"
       weight="33.333333"
       steps="2"
       helper_size="0"
       apply_no_weight="true"
       apply_with_weight="true"
       only_selected="false"
       uniform="false" /><inkscape:path-effect
       effect="bspline"
       id="path-effect6"
       is_visible="true"
       lpeversion="1.3"
       weight="33.333333"
       steps="2"
       helper_size="0"
       apply_no_weight="true"
       apply_with_weight="true"
       only_selected="false"
       uniform="false" /><inkscape:path-effect
       effect="bspline"
       id="path-effect4"
       is_visible="true"
       lpeversion="1.3"
       weight="33.333333"
       steps="2"
       helper_size="0"
       apply_no_weight="true"
       apply_with_weight="true"
       only_selected="false"
       uniform="false" /><inkscape:path-effect
       effect="spiro"
       id="path-effect3"
       is_visible="true"
       lpeversion="1" /><inkscape:path-effect
       effect="bspline"
       id="path-effect1"
       is_visible="true"
       lpeversion="1.3"
       weight="33.333333"
       steps="2"
       helper_size="0"
       apply_no_weight="true"
       apply_with_weight="true"
       only_selected="false"
       uniform="false" /><inkscape:path-effect
       effect="bspline"
       id="path-effect11"
       is_visible="true"
       lpeversion="1.3"
       weight="33.333333"
       steps="2"
       helper_size="0"
       apply_no_weight="true"
       apply_with_weight="true"
       only_selected="false"
       uniform="false" /><inkscape:path-effect
       effect="bspline"
       id="path-effect10"
       is_visible="true"
       lpeversion="1.3"
       weight="33.333333"
       steps="2"
       helper_size="0"
       apply_no_weight="true"
       apply_with_weight="true"
       only_selected="false"
       uniform="false" /><inkscape:path-effect
       effect="spiro"
       id="path-effect8"
       is_visible="true"
       lpeversion="1" /><inkscape:path-effect
       effect="bspline"
       id="path-effect11-2"
       is_visible="true"
       lpeversion="1.3"
       weight="33.333333"
       steps="2"
       helper_size="0"
       apply_no_weight="true"
       apply_with_weight="true"
       only_selected="false"
       uniform="false" /><inkscape:path-effect
       effect="bspline"
       id="path-effect10-9"
       is_visible="true"
       lpeversion="1.3"
       weight="33.333333"
       steps="2"
       helper_size="0"
       apply_no_weight="true"
       apply_with_weight="true"
       only_selected="false"
       uniform="false" /><inkscape:path-effect
       effect="spiro"
       id="path-effect8-1"
       is_visible="true"
       lpeversion="1" /><inkscape:path-effect
       effect="bspline"
       id="path-effect2"
       is_visible="true"
       lpeversion="1.3"
       weight="33.333333"
       steps="2"
       helper_size="0"
       apply_no_weight="true"
       apply_with_weight="true"
       only_selected="false"
       uniform="false" /><inkscape:path-effect
       effect="spiro"
       id="path-effect3-4"
       is_visible="true"
       lpeversion="1" /><inkscape:path-effect
       effect="bspline"
       id="path-effect1-7"
       is_visible="true"
       lpeversion="1.3"
       weight="33.333333"
       steps="2"
       helper_size="0"
       apply_no_weight="true"
       apply_with_weight="true"
       only_selected="false"
       uniform="false" /><inkscape:path-effect
       effect="bspline"
       id="path-effect11-8"
       is_visible="true"
       lpeversion="1.3"
       weight="33.333333"
       steps="2"
       helper_size="0"
       apply_no_weight="true"
       apply_with_weight="true"
       only_selected="false"
       uniform="false" /><inkscape:path-effect
       effect="bspline"
       id="path-effect10-4"
       is_visible="true"
       lpeversion="1.3"
       weight="33.333333"
       steps="2"
       helper_size="0"
       apply_no_weight="true"
       apply_with_weight="true"
       only_selected="false"
       uniform="false" /><inkscape:path-effect
       effect="spiro"
       id="path-effect8-5"
       is_visible="true"
       lpeversion="1" /><inkscape:path-effect
       effect="bspline"
       id="path-effect4-1"
       is_visible="true"
       lpeversion="1.3"
       weight="33.333333"
       steps="2"
       helper_size="0"
       apply_no_weight="true"
       apply_with_weight="true"
       only_selected="false"
       uniform="false" /><inkscape:path-effect
       effect="bspline"
       id="path-effect6-9"
       is_visible="true"
       lpeversion="1.3"
       weight="33.333333"
       steps="2"
       helper_size="0"
       apply_no_weight="true"
       apply_with_weight="true"
       only_selected="false"
       uniform="false" /><inkscape:path-effect
       effect="bspline"
       id="path-effect4-9"
       is_visible="true"
       lpeversion="1.3"
       weight="33.333333"
       steps="2"
       helper_size="0"
       apply_no_weight="true"
       apply_with_weight="true"
       only_selected="false"
       uniform="false" /><inkscape:path-effect
       effect="bspline"
       id="path-effect6-1"
       is_visible="true"
       lpeversion="1.3"
       weight="33.333333"
       steps="2"
       helper_size="0"
       apply_no_weight="true"
       apply_with_weight="true"
       only_selected="false"
       uniform="false" /><inkscape:path-effect
       effect="spiro"
       id="path-effect3-5"
       is_visible="true"
       lpeversion="1" /><inkscape:path-effect
       effect="bspline"
       id="path-effect1-3"
       is_visible="true"
       lpeversion="1.3"
       weight="33.333333"
       steps="2"
       helper_size="0"
       apply_no_weight="true"
       apply_with_weight="true"
       only_selected="false"
       uniform="false" /><inkscape:path-effect
       effect="bspline"
       id="path-effect11-5"
       is_visible="true"
       lpeversion="1.3"
       weight="33.333333"
       steps="2"
       helper_size="0"
       apply_no_weight="true"
       apply_with_weight="true"
       only_selected="false"
       uniform="false" /><inkscape:path-effect
       effect="bspline"
       id="path-effect10-6"
       is_visible="true"
       lpeversion="1.3"
       weight="33.333333"
       steps="2"
       helper_size="0"
       apply_no_weight="true"
       apply_with_weight="true"
       only_selected="false"
       uniform="false" /><inkscape:path-effect
       effect="spiro"
       id="path-effect8-2"
       is_visible="true"
       lpeversion="1" /><inkscape:path-effect
       effect="bspline"
       id="path-effect11-6"
       is_visible="true"
       lpeversion="1.3"
       weight="33.333333"
       steps="2"
       helper_size="0"
       apply_no_weight="true"
       apply_with_weight="true"
       only_selected="false"
       uniform="false" /><inkscape:path-effect
       effect="bspline"
       id="path-effect10-0"
       is_visible="true"
       lpeversion="1.3"
       weight="33.333333"
       steps="2"
       helper_size="0"
       apply_no_weight="true"
       apply_with_weight="true"
       only_selected="false"
       uniform="false" /><inkscape:path-effect
       effect="spiro"
       id="path-effect8-6"
       is_visible="true"
       lpeversion="1" /><inkscape:path-effect
       effect="spiro"
       id="path-effect8-6-9"
       is_visible="true"
       lpeversion="1" /><inkscape:path-effect
       effect="bspline"
       id="path-effect10-0-2"
       is_visible="true"
       lpeversion="1.3"
       weight="33.333333"
       steps="2"
       helper_size="0"
       apply_no_weight="true"
       apply_with_weight="true"
       only_selected="false"
       uniform="false" /><inkscape:path-effect
       effect="bspline"
       id="path-effect11-6-0"
       is_visible="true"
       lpeversion="1.3"
       weight="33.333333"
       steps="2"
       helper_size="0"
       apply_no_weight="true"
       apply_with_weight="true"
       only_selected="false"
       uniform="false" /><inkscape:path-effect
       effect="bspline"
       id="path-effect5-2"
       is_visible="true"
       lpeversion="1.3"
       weight="33.333333"
       steps="2"
       helper_size="0"
       apply_no_weight="true"
       apply_with_weight="true"
       only_selected="false"
       uniform="false" /><inkscape:path-effect
       effect="spiro"
       id="path-effect3-8"
       is_visible="true"
       lpeversion="1" /><inkscape:path-effect
       effect="bspline"
       id="path-effect1-0"
       is_visible="true"
       lpeversion="1.3"
       weight="33.333333"
       steps="2"
       helper_size="0"
       apply_no_weight="true"
       apply_with_weight="true"
       only_selected="false"
       uniform="false" /><inkscape:path-effect
       effect="bspline"
       id="path-effect11-21"
       is_visible="true"
       lpeversion="1.3"
       weight="33.333333"
       steps="2"
       helper_size="0"
       apply_no_weight="true"
       apply_with_weight="true"
       only_selected="false"
       uniform="false" /><inkscape:path-effect
       effect="bspline"
       id="path-effect10-05"
       is_visible="true"
       lpeversion="1.3"
       weight="33.333333"
       steps="2"
       helper_size="0"
       apply_no_weight="true"
       apply_with_weight="true"
       only_selected="false"
       uniform="false" /><inkscape:path-effect
       effect="spiro"
       id="path-effect8-11"
       is_visible="true"
       lpeversion="1" /></defs><g
     inkscape:groupmode="layer"
     id="layer2"
     inkscape:label="diagram"><g
       inkscape:label="Layer 1"
       inkscape:groupmode="layer"
       id="layer1"><g
         id="g2"
         transform="matrix(0.25080079,0,0,0.25080079,894.76835,453.24955)"
         style="stroke-width:19.9361;stroke-dasharray:none"><path
           style="fill:none;stroke:#000000;stroke-width:19.9361;stroke-dasharray:none"
           id="path1-3"
           sodipodi:type="arc"
           sodipodi:cx="457.7012"
           sodipodi:cy="334.54214"
           sodipodi:rx="159.94626"
           sodipodi:ry="142.35028"
           sodipodi:start="3.1321942"
           sodipodi:end="0.03270313"
           sodipodi:arc-type="arc"
           d="m 297.76201,335.88 a 159.94626,142.35028 0 0 1 80.60901,-124.94541 159.94626,142.35028 0 0 1 161.87525,1.67879 159.94626,142.35028 0 0 1 77.31567,126.58323"
           sodipodi:open="true" /><path
           style="fill:none;stroke:#000000;stroke-width:19.9361;stroke-linecap:butt;stroke-linejoin:miter;stroke-dasharray:none;stroke-opacity:1"
           d="m 701.23564,267.89202 -83.54956,71.40779 -86.39445,-65.00624"
           id="path2-61" /></g><g
         inkscape:label="Layer 1"
         id="layer1-2-7"
         transform="matrix(0.31278001,0,0,0.24852916,1535.4266,199.56476)"
         style="stroke-width:17.9334;stroke-dasharray:none" /><g
         inkscape:label="Layer 1"
         id="layer1-9"
         transform="matrix(0.624718,0,0,0.624718,156.5731,69.715327)"
         style="stroke-width:8.00361;stroke-dasharray:none"><path
           style="opacity:1;fill:none;stroke:#000000;stroke-width:8.00361;stroke-dasharray:none;stroke-opacity:1"
           id="path4"
           sodipodi:type="arc"
           sodipodi:cx="494.24084"
           sodipodi:cy="515.5575"
           sodipodi:rx="185.68489"
           sodipodi:ry="177.17371"
           sodipodi:start="1.9124403"
           sodipodi:end="1.2232726"
           sodipodi:arc-type="arc"
           d="M 432.02963,682.49147 A 185.68489,177.17371 0 0 1 311.21233,485.69598 185.68489,177.17371 0 0 1 493.69495,338.38455 185.68489,177.17371 0 0 1 677.08219,484.66967 185.68489,177.17371 0 0 1 557.47966,682.13957"
           sodipodi:open="true" /><path
           style="fill:none;stroke:#000000;stroke-width:8.00361;stroke-dasharray:none;stroke-opacity:1"
           id="path4-5"
           sodipodi:type="arc"
           sodipodi:cx="495.68311"
           sodipodi:cy="635.35278"
           sodipodi:rx="78.098076"
           sodipodi:ry="77.677788"
           sodipodi:start="2.4821374"
           sodipodi:end="0.63588417"
           sodipodi:arc-type="arc"
           d="m 433.96016,682.94491 a 78.098076,77.677788 0 0 1 8.4155,-104.36059 78.098076,77.677788 0 0 1 105.25487,-1.23386 78.098076,77.677788 0 0 1 10.88614,104.13431"
           sodipodi:open="true" /><path
           style="fill:none;stroke:#000000;stroke-width:8.00361;stroke-linecap:butt;stroke-linejoin:miter;stroke-dasharray:none;stroke-opacity:1"
           d="M 500.11442,338.52541 498.46644,222.79745"
           id="path5-1"
           sodipodi:nodetypes="cc" /></g><g
         id="g11"
         transform="matrix(0.27552371,0,0,0.27552371,288.2519,576.35382)"
         style="stroke-width:18.1473;stroke-dasharray:none"><path
           style="fill:none;stroke:#000000;stroke-width:42.2095;stroke-linecap:butt;stroke-linejoin:miter;stroke-dasharray:none;stroke-opacity:1"
           d="m 518.76486,697.67754 c -32.97157,-5.44888 -64.38679,-20.02609 -89.83634,-41.68563 -25.44955,-21.65954 -44.86159,-50.34026 -55.51151,-82.01666 -10.64993,-31.67639 -12.50769,-66.25904 -5.31253,-98.89407 7.19515,-32.63502 23.42292,-63.23029 46.40563,-87.49158 38.55397,-40.69881 95.41099,-62.23714 151.46424,-61.32339 56.05326,0.91376 110.83179,23.33416 154.19838,58.86077 43.3666,35.52662 75.61107,83.62159 96.04569,135.82531 20.43462,52.20372 29.38742,108.45018 30.53487,164.49914 1.25575,61.33874 -6.85931,123.36153 -29.036,180.56478 -22.1767,57.20325 -58.91556,109.45967 -108.55556,145.51369 -49.63999,36.0539 -112.53556,54.9974 -173.39228,47.2207 -30.42837,-3.8883 -60.07419,-14.3436 -85.84777,-30.9787 -25.77358,-16.6351 -47.60582,-39.47693 -62.47275,-66.30935 -27.96769,-50.47721 -29.38376,-114.74313 -3.66661,-166.40327 25.71715,-51.66013 77.8482,-89.26953 134.98254,-97.38174 z"
           id="path8-6"
           transform="matrix(-0.00196853,-0.49980201,0.36982001,-0.00266042,241.51765,530.90999)"
           sodipodi:nodetypes="csssc"
           inkscape:original-d="M 518.76486,697.67754 C 608.23264,637.39656 414.79451,440.0953 414.51011,387.5896 414.22571,335.08389 744.78123,640.72854 846.75329,685.45143 1592.5263,1012.5324 460.3291,1106.9387 387.44893,961.46255 301.43496,789.77001 433.27764,765.91964 518.76486,697.67754 Z"
           inkscape:path-effect="#path-effect8-6" /><path
           style="fill:none;stroke:#000000;stroke-width:18.1473;stroke-linecap:butt;stroke-linejoin:miter;stroke-dasharray:none;stroke-opacity:1"
           d="m 503.26606,103.33094 0.33228,-399.63871"
           id="path9-1"
           sodipodi:nodetypes="cc" /><path
           style="fill:none;stroke:#000000;stroke-width:18.1473;stroke-linecap:butt;stroke-linejoin:miter;stroke-dasharray:none;stroke-opacity:1"
           d="m 505.167,339.36226 c -2.10068,79.2599 -4.20132,158.51817 -35.90433,218.47624 -31.70302,59.95807 -93.00462,100.61027 -124.41593,157.70249 -31.41131,57.09222 -32.92856,130.61903 -34.44584,204.14735"
           id="path10"
           inkscape:original-d="m 505.167,339.36226 c -2.10068,79.2599 -4.20131,158.51817 -6.30204,237.77965 -61.30531,40.65466 -122.60691,81.30686 -183.91222,121.96152 -1.51731,73.52978 -3.03456,147.05659 -4.55184,220.58491"
           inkscape:path-effect="#path-effect10-0"
           sodipodi:nodetypes="cccc"
           transform="translate(-5.0943911,-50.975738)" /><path
           style="fill:none;stroke:#000000;stroke-width:18.1473;stroke-linecap:butt;stroke-linejoin:miter;stroke-dasharray:none;stroke-opacity:1"
           d="m 503.44628,334.90793 c -0.52456,81.00432 -1.0491,162.00703 29.71475,220.90987 30.76386,58.90283 92.81239,95.70033 123.8693,152.27385 31.0569,56.57353 31.11844,132.91776 31.17997,209.26361"
           id="path11"
           inkscape:path-effect="#path-effect11-6"
           inkscape:original-d="m 503.44628,334.90793 c -0.52455,81.00432 -1.0491,162.00703 -1.57367,243.01298 62.05228,36.79972 124.10081,73.59722 186.15309,110.39694 0.0615,76.34733 0.12306,152.69156 0.1846,229.03741"
           sodipodi:nodetypes="cccc"
           transform="translate(-5.0943911,-50.975738)" /></g><path
         style="fill:none;stroke:#000000;stroke-width:5;stroke-linecap:butt;stroke-linejoin:miter;stroke-dasharray:none;stroke-opacity:1"
         d="m 416.10816,494.0372 c 0.65419,28.43013 1.30836,56.8597 16.5943,92.98269 15.28593,36.12299 45.2018,79.93563 60.53596,118.7139 15.33415,38.77828 16.08476,72.51822 16.83539,106.25882"
         id="path1"
         inkscape:path-effect="#path-effect5"
         inkscape:original-d="m 416.10816,494.0372 c 0.65419,28.43013 1.30836,56.8597 1.96256,85.2904 29.91767,43.81528 59.83354,87.62792 89.75121,131.44319 0.75065,33.74128 1.50126,67.48122 2.25188,101.22182"
         sodipodi:nodetypes="cccc"
         transform="translate(90)" /><path
         style="fill:none;stroke:#000000;stroke-width:5;stroke-linecap:butt;stroke-linejoin:miter;stroke-dasharray:none;stroke-opacity:1"
         d="m 1673.0648,207.84459 c 0.3807,27.73612 0.7613,55.47201 -1.7202,81.04324 -2.4814,25.57122 -7.825,48.97669 -22.962,115.27953 -15.1371,66.30284 -40.0669,175.49918 -55.0043,240.92759 -14.9375,65.42841 -19.8819,87.08569 -22.2895,108.34557 -2.4076,21.25988 -2.2783,42.12189 -2.1491,62.98403"
         id="path14"
         inkscape:path-effect="#path-effect14"
         inkscape:original-d="m 1673.0648,207.84459 c 0.3807,27.73612 0.7613,55.47201 1.142,83.20836 -5.3437,23.40609 -10.6872,46.81156 -16.0308,70.21768 -24.9305,109.19957 -49.8603,218.3959 -74.7908,327.59557 -4.9444,21.65715 -9.8888,43.31443 -14.8332,64.97189 0.1292,20.86231 0.2585,41.72432 0.3877,62.58646"
         sodipodi:nodetypes="cccccc"
         transform="translate(-60)" /><path
         style="fill:none;stroke:#000000;stroke-width:5;stroke-linecap:butt;stroke-linejoin:miter;stroke-dasharray:none;stroke-opacity:1"
         d="m 1676.114,814.72525 c -0.369,-36.95013 -0.738,-73.89954 19.4354,-92.32329 20.1733,-18.42374 60.8865,-18.32039 81.2812,0.34036 20.3947,18.66074 20.4685,55.87732 20.5422,93.09467"
         id="path15"
         inkscape:path-effect="#path-effect15"
         inkscape:original-d="m 1676.114,814.72525 c -0.369,-36.95013 -0.738,-73.89954 -1.107,-110.8504 40.7157,0.10336 81.4289,0.20672 122.1446,0.31009 0.074,37.21812 0.1475,74.4347 0.2212,111.65205"
         sodipodi:nodetypes="cccc"
         transform="translate(-60)" /><text
         xml:space="preserve"
         style="font-style:normal;font-weight:normal;font-size:66.6667px;line-height:1.25;font-family:sans-serif;fill:#000000;fill-opacity:1;stroke:none"
         x="297.37134"
         y="158.51956"
         id="text1"><tspan
           sodipodi:role="line"
           id="tspan1"
           x="297.37134"
           y="158.51956"
           style="font-style:normal;font-variant:normal;font-weight:normal;font-stretch:normal;font-size:66.6667px;font-family:'UM Typewriter';-inkscape-font-specification:'UM Typewriter'">(x ↦ <tspan
   style="font-style:normal;font-variant:normal;font-weight:normal;font-stretch:normal;font-family:NewComputerModern10;-inkscape-font-specification:NewComputerModern10"
   id="tspan2">b</tspan>) <tspan
   style="font-style:normal;font-variant:normal;font-weight:normal;font-stretch:normal;font-family:NewComputerModern10;-inkscape-font-specification:NewComputerModern10"
   id="tspan3">a</tspan></tspan></text><text
         xml:space="preserve"
         style="font-style:normal;font-weight:normal;font-size:66.6667px;line-height:1.25;font-family:sans-serif;fill:#000000;fill-opacity:1;stroke:none"
         x="352.66153"
         y="891.11792"
         id="text1-5"><tspan
           sodipodi:role="line"
           id="tspan1-3"
           x="352.66153"
           y="891.11792"
           style="font-style:normal;font-variant:normal;font-weight:normal;font-stretch:normal;font-size:66.6667px;font-family:NewComputerModern10;-inkscape-font-specification:NewComputerModern10">b</tspan></text><text
         xml:space="preserve"
         style="font-style:normal;font-weight:normal;font-size:66.6667px;line-height:1.25;font-family:sans-serif;fill:#000000;fill-opacity:1;stroke:none"
         x="426.6337"
         y="889.78333"
         id="text1-7"><tspan
           sodipodi:role="line"
           id="tspan1-0"
           x="426.6337"
           y="889.78333"
           style="font-style:normal;font-variant:normal;font-weight:normal;font-stretch:normal;font-size:66.6667px;font-family:NewComputerModern10;-inkscape-font-specification:NewComputerModern10">&amp;<tspan
   style="font-style:normal;font-variant:normal;font-weight:normal;font-stretch:normal;font-family:'UM Typewriter';-inkscape-font-specification:'UM Typewriter'"
   id="tspan4">x</tspan></tspan></text><text
         xml:space="preserve"
         style="font-style:normal;font-weight:normal;font-size:66.6667px;line-height:1.25;font-family:sans-serif;fill:#000000;fill-opacity:1;stroke:none"
         x="581.5979"
         y="890.70251"
         id="text1-5-6"><tspan
           sodipodi:role="line"
           id="tspan1-3-2"
           x="581.5979"
           y="890.70251"
           style="font-style:normal;font-variant:normal;font-weight:normal;font-stretch:normal;font-size:66.6667px;font-family:NewComputerModern10;-inkscape-font-specification:NewComputerModern10">a</tspan></text><text
         xml:space="preserve"
         style="font-style:normal;font-weight:normal;font-size:66.6667px;line-height:1.25;font-family:sans-serif;fill:#000000;fill-opacity:1;stroke:none"
         x="1658.3334"
         y="186.26669"
         id="text1-5-2"><tspan
           sodipodi:role="line"
           id="tspan1-3-8"
           x="1658.3334"
           y="186.26669"
           style="font-style:normal;font-variant:normal;font-weight:normal;font-stretch:normal;font-size:66.6667px;font-family:NewComputerModern10;-inkscape-font-specification:NewComputerModern10" /></text><text
         xml:space="preserve"
         style="font-style:normal;font-weight:normal;font-size:66.6667px;line-height:1.25;font-family:sans-serif;text-align:center;text-anchor:middle;fill:#000000;fill-opacity:1;stroke:none"
         x="1624.0088"
         y="80.128304"
         id="text1-5-4"><tspan
           sodipodi:role="line"
           id="tspan1-3-0"
           x="1624.0088"
           y="80.128304"
           style="font-style:normal;font-variant:normal;font-weight:normal;font-stretch:normal;font-size:66.6667px;font-family:NewComputerModern10;-inkscape-font-specification:NewComputerModern10;text-align:center;text-anchor:middle"><tspan
   style="font-style:normal;font-variant:normal;font-weight:normal;font-stretch:normal;font-family:'UM Typewriter';-inkscape-font-specification:'UM Typewriter';text-align:center;text-anchor:middle"
   id="tspan5">x</tspan><tspan
   style="font-style:normal;font-variant:normal;font-weight:normal;font-stretch:normal;font-family:'UM Typewriter';-inkscape-font-specification:'UM Typewriter'"
   id="tspan8"> ← </tspan>a</tspan><tspan
           sodipodi:role="line"
           x="1624.0088"
           y="176.46169"
           style="font-style:normal;font-variant:normal;font-weight:normal;font-stretch:normal;font-size:66.6667px;font-family:NewComputerModern10;-inkscape-font-specification:NewComputerModern10;text-align:center;text-anchor:middle"
           id="tspan7">b</tspan></text><text
         xml:space="preserve"
         style="font-style:normal;font-weight:normal;font-size:66.6667px;line-height:1.25;font-family:sans-serif;fill:#000000;fill-opacity:1;stroke:none"
         x="1491.2609"
         y="890.86475"
         id="text1-5-4-9"><tspan
           sodipodi:role="line"
           id="tspan1-3-0-0"
           x="1491.2609"
           y="890.86475"
           style="font-style:normal;font-variant:normal;font-weight:normal;font-stretch:normal;font-size:66.6667px;font-family:NewComputerModern10;-inkscape-font-specification:NewComputerModern10">b</tspan></text><text
         xml:space="preserve"
         style="font-style:normal;font-weight:normal;font-size:66.6667px;line-height:1.25;font-family:sans-serif;fill:#000000;fill-opacity:1;stroke:none"
         x="1575.0757"
         y="887.16187"
         id="text1-5-4-9-1"><tspan
           sodipodi:role="line"
           id="tspan1-3-0-0-0"
           x="1575.0757"
           y="887.16187"
           style="font-style:normal;font-variant:normal;font-weight:normal;font-stretch:normal;font-size:66.6667px;font-family:NewComputerModern10;-inkscape-font-specification:NewComputerModern10">&amp;<tspan
   style="font-style:normal;font-variant:normal;font-weight:normal;font-stretch:normal;font-family:'UM Typewriter';-inkscape-font-specification:'UM Typewriter'"
   id="tspan6">x</tspan></tspan></text><text
         xml:space="preserve"
         style="font-style:normal;font-weight:normal;font-size:66.6667px;line-height:1.25;font-family:sans-serif;fill:#000000;fill-opacity:1;stroke:none"
         x="1718.5415"
         y="890.47607"
         id="text1-5-4-9-3"><tspan
           sodipodi:role="line"
           id="tspan1-3-0-0-9"
           x="1718.5415"
           y="890.47607"
           style="font-style:normal;font-variant:normal;font-weight:normal;font-stretch:normal;font-size:66.6667px;font-family:NewComputerModern10;-inkscape-font-specification:NewComputerModern10">a</tspan></text></g></g></svg>
