<?xml version="1.0" encoding="UTF-8" standalone="no"?>
<!-- Created with Inkscape (http://www.inkscape.org/) -->

<svg
   width="2100"
   height="4000"
   viewBox="0 0 2100 4000"
   version="1.1"
   id="svg1"
   inkscape:version="1.3.2 (091e20ef0f, 2023-11-25)"
   sodipodi:docname="erase-tree.svg"
   xml:space="preserve"
   xmlns:inkscape="http://www.inkscape.org/namespaces/inkscape"
   xmlns:sodipodi="http://sodipodi.sourceforge.net/DTD/sodipodi-0.dtd"
   xmlns="http://www.w3.org/2000/svg"
   xmlns:svg="http://www.w3.org/2000/svg"><sodipodi:namedview
     id="namedview1"
     pagecolor="#505050"
     bordercolor="#ffffff"
     borderopacity="1"
     inkscape:showpageshadow="0"
     inkscape:pageopacity="0"
     inkscape:pagecheckerboard="1"
     inkscape:deskcolor="#505050"
     inkscape:document-units="mm"
     inkscape:zoom="0.1767767"
     inkscape:cx="1366.1303"
     inkscape:cy="2670.0352"
     inkscape:window-width="1366"
     inkscape:window-height="768"
     inkscape:window-x="0"
     inkscape:window-y="0"
     inkscape:window-maximized="1"
     inkscape:current-layer="layer1"
     showgrid="false"
     showguides="true" /><defs
     id="defs1"><inkscape:path-effect
       effect="bspline"
       id="path-effect15"
       is_visible="true"
       lpeversion="1.3"
       weight="33.333333"
       steps="2"
       helper_size="0"
       apply_no_weight="true"
       apply_with_weight="true"
       only_selected="false"
       uniform="false" /><inkscape:path-effect
       effect="bspline"
       id="path-effect14"
       is_visible="true"
       lpeversion="1.3"
       weight="33.333333"
       steps="2"
       helper_size="0"
       apply_no_weight="true"
       apply_with_weight="true"
       only_selected="false"
       uniform="false" /><inkscape:path-effect
       effect="bspline"
       id="path-effect13"
       is_visible="true"
       lpeversion="1.3"
       weight="33.333333"
       steps="2"
       helper_size="0"
       apply_no_weight="true"
       apply_with_weight="true"
       only_selected="false"
       uniform="false" /><inkscape:path-effect
       effect="bspline"
       id="path-effect12"
       is_visible="true"
       lpeversion="1.3"
       weight="33.333333"
       steps="2"
       helper_size="0"
       apply_no_weight="true"
       apply_with_weight="true"
       only_selected="false"
       uniform="false" /><inkscape:path-effect
       effect="bspline"
       id="path-effect9"
       is_visible="true"
       lpeversion="1.3"
       weight="33.333333"
       steps="2"
       helper_size="0"
       apply_no_weight="true"
       apply_with_weight="true"
       only_selected="false"
       uniform="false" /><inkscape:path-effect
       effect="bspline"
       id="path-effect7"
       is_visible="true"
       lpeversion="1.3"
       weight="33.333333"
       steps="2"
       helper_size="0"
       apply_no_weight="true"
       apply_with_weight="true"
       only_selected="false"
       uniform="false" /><inkscape:path-effect
       effect="spiro"
       id="path-effect3"
       is_visible="true"
       lpeversion="1" /><inkscape:path-effect
       effect="bspline"
       id="path-effect1"
       is_visible="true"
       lpeversion="1.3"
       weight="33.333333"
       steps="2"
       helper_size="0"
       apply_no_weight="true"
       apply_with_weight="true"
       only_selected="false"
       uniform="false" /><inkscape:path-effect
       effect="bspline"
       id="path-effect11"
       is_visible="true"
       lpeversion="1.3"
       weight="33.333333"
       steps="2"
       helper_size="0"
       apply_no_weight="true"
       apply_with_weight="true"
       only_selected="false"
       uniform="false" /><inkscape:path-effect
       effect="bspline"
       id="path-effect10"
       is_visible="true"
       lpeversion="1.3"
       weight="33.333333"
       steps="2"
       helper_size="0"
       apply_no_weight="true"
       apply_with_weight="true"
       only_selected="false"
       uniform="false" /><inkscape:path-effect
       effect="spiro"
       id="path-effect8"
       is_visible="true"
       lpeversion="1" /><inkscape:path-effect
       effect="bspline"
       id="path-effect11-2"
       is_visible="true"
       lpeversion="1.3"
       weight="33.333333"
       steps="2"
       helper_size="0"
       apply_no_weight="true"
       apply_with_weight="true"
       only_selected="false"
       uniform="false" /><inkscape:path-effect
       effect="bspline"
       id="path-effect10-9"
       is_visible="true"
       lpeversion="1.3"
       weight="33.333333"
       steps="2"
       helper_size="0"
       apply_no_weight="true"
       apply_with_weight="true"
       only_selected="false"
       uniform="false" /><inkscape:path-effect
       effect="spiro"
       id="path-effect8-1"
       is_visible="true"
       lpeversion="1" /><inkscape:path-effect
       effect="bspline"
       id="path-effect2"
       is_visible="true"
       lpeversion="1.3"
       weight="33.333333"
       steps="2"
       helper_size="0"
       apply_no_weight="true"
       apply_with_weight="true"
       only_selected="false"
       uniform="false" /><inkscape:path-effect
       effect="spiro"
       id="path-effect3-4"
       is_visible="true"
       lpeversion="1" /><inkscape:path-effect
       effect="bspline"
       id="path-effect1-7"
       is_visible="true"
       lpeversion="1.3"
       weight="33.333333"
       steps="2"
       helper_size="0"
       apply_no_weight="true"
       apply_with_weight="true"
       only_selected="false"
       uniform="false" /><inkscape:path-effect
       effect="bspline"
       id="path-effect11-8"
       is_visible="true"
       lpeversion="1.3"
       weight="33.333333"
       steps="2"
       helper_size="0"
       apply_no_weight="true"
       apply_with_weight="true"
       only_selected="false"
       uniform="false" /><inkscape:path-effect
       effect="bspline"
       id="path-effect10-4"
       is_visible="true"
       lpeversion="1.3"
       weight="33.333333"
       steps="2"
       helper_size="0"
       apply_no_weight="true"
       apply_with_weight="true"
       only_selected="false"
       uniform="false" /><inkscape:path-effect
       effect="spiro"
       id="path-effect8-5"
       is_visible="true"
       lpeversion="1" /><inkscape:path-effect
       effect="bspline"
       id="path-effect6"
       is_visible="true"
       lpeversion="1.3"
       weight="33.333333"
       steps="2"
       helper_size="0"
       apply_no_weight="true"
       apply_with_weight="true"
       only_selected="false"
       uniform="false" /><inkscape:path-effect
       effect="bspline"
       id="path-effect5"
       is_visible="true"
       lpeversion="1.3"
       weight="33.333333"
       steps="2"
       helper_size="0"
       apply_no_weight="true"
       apply_with_weight="true"
       only_selected="false"
       uniform="false" /><inkscape:path-effect
       effect="bspline"
       id="path-effect4"
       is_visible="true"
       lpeversion="1.3"
       weight="33.333333"
       steps="2"
       helper_size="0"
       apply_no_weight="true"
       apply_with_weight="true"
       only_selected="false"
       uniform="false" /><inkscape:path-effect
       effect="bspline"
       id="path-effect2-1"
       is_visible="true"
       lpeversion="1.3"
       weight="33.333333"
       steps="2"
       helper_size="0"
       apply_no_weight="true"
       apply_with_weight="true"
       only_selected="false"
       uniform="false" /><inkscape:path-effect
       effect="spiro"
       id="path-effect3-2"
       is_visible="true"
       lpeversion="1" /><inkscape:path-effect
       effect="bspline"
       id="path-effect1-9"
       is_visible="true"
       lpeversion="1.3"
       weight="33.333333"
       steps="2"
       helper_size="0"
       apply_no_weight="true"
       apply_with_weight="true"
       only_selected="false"
       uniform="false" /><inkscape:path-effect
       effect="bspline"
       id="path-effect11-3"
       is_visible="true"
       lpeversion="1.3"
       weight="33.333333"
       steps="2"
       helper_size="0"
       apply_no_weight="true"
       apply_with_weight="true"
       only_selected="false"
       uniform="false" /><inkscape:path-effect
       effect="bspline"
       id="path-effect10-1"
       is_visible="true"
       lpeversion="1.3"
       weight="33.333333"
       steps="2"
       helper_size="0"
       apply_no_weight="true"
       apply_with_weight="true"
       only_selected="false"
       uniform="false" /><inkscape:path-effect
       effect="spiro"
       id="path-effect8-9"
       is_visible="true"
       lpeversion="1" /><inkscape:path-effect
       effect="bspline"
       id="path-effect4-7"
       is_visible="true"
       lpeversion="1.3"
       weight="33.333333"
       steps="2"
       helper_size="0"
       apply_no_weight="true"
       apply_with_weight="true"
       only_selected="false"
       uniform="false" /><inkscape:path-effect
       effect="bspline"
       id="path-effect4-2"
       is_visible="true"
       lpeversion="1.3"
       weight="33.333333"
       steps="2"
       helper_size="0"
       apply_no_weight="true"
       apply_with_weight="true"
       only_selected="false"
       uniform="false" /><inkscape:path-effect
       effect="bspline"
       id="path-effect6-3"
       is_visible="true"
       lpeversion="1.3"
       weight="33.333333"
       steps="2"
       helper_size="0"
       apply_no_weight="true"
       apply_with_weight="true"
       only_selected="false"
       uniform="false" /><inkscape:path-effect
       effect="bspline"
       id="path-effect5-6"
       is_visible="true"
       lpeversion="1.3"
       weight="33.333333"
       steps="2"
       helper_size="0"
       apply_no_weight="true"
       apply_with_weight="true"
       only_selected="false"
       uniform="false" /><inkscape:path-effect
       effect="bspline"
       id="path-effect4-1"
       is_visible="true"
       lpeversion="1.3"
       weight="33.333333"
       steps="2"
       helper_size="0"
       apply_no_weight="true"
       apply_with_weight="true"
       only_selected="false"
       uniform="false" /><inkscape:path-effect
       effect="bspline"
       id="path-effect2-0"
       is_visible="true"
       lpeversion="1.3"
       weight="33.333333"
       steps="2"
       helper_size="0"
       apply_no_weight="true"
       apply_with_weight="true"
       only_selected="false"
       uniform="false" /><inkscape:path-effect
       effect="spiro"
       id="path-effect3-6"
       is_visible="true"
       lpeversion="1" /><inkscape:path-effect
       effect="bspline"
       id="path-effect1-3"
       is_visible="true"
       lpeversion="1.3"
       weight="33.333333"
       steps="2"
       helper_size="0"
       apply_no_weight="true"
       apply_with_weight="true"
       only_selected="false"
       uniform="false" /><inkscape:path-effect
       effect="bspline"
       id="path-effect11-20"
       is_visible="true"
       lpeversion="1.3"
       weight="33.333333"
       steps="2"
       helper_size="0"
       apply_no_weight="true"
       apply_with_weight="true"
       only_selected="false"
       uniform="false" /><inkscape:path-effect
       effect="bspline"
       id="path-effect10-6"
       is_visible="true"
       lpeversion="1.3"
       weight="33.333333"
       steps="2"
       helper_size="0"
       apply_no_weight="true"
       apply_with_weight="true"
       only_selected="false"
       uniform="false" /><inkscape:path-effect
       effect="spiro"
       id="path-effect8-15"
       is_visible="true"
       lpeversion="1" /><inkscape:path-effect
       effect="bspline"
       id="path-effect4-7-5"
       is_visible="true"
       lpeversion="1.3"
       weight="33.333333"
       steps="2"
       helper_size="0"
       apply_no_weight="true"
       apply_with_weight="true"
       only_selected="false"
       uniform="false" /><inkscape:path-effect
       effect="bspline"
       id="path-effect4-2-4"
       is_visible="true"
       lpeversion="1.3"
       weight="33.333333"
       steps="2"
       helper_size="0"
       apply_no_weight="true"
       apply_with_weight="true"
       only_selected="false"
       uniform="false" /><inkscape:path-effect
       effect="spiro"
       id="path-effect3-64"
       is_visible="true"
       lpeversion="1" /><inkscape:path-effect
       effect="bspline"
       id="path-effect1-1"
       is_visible="true"
       lpeversion="1.3"
       weight="33.333333"
       steps="2"
       helper_size="0"
       apply_no_weight="true"
       apply_with_weight="true"
       only_selected="false"
       uniform="false" /><inkscape:path-effect
       effect="bspline"
       id="path-effect11-28"
       is_visible="true"
       lpeversion="1.3"
       weight="33.333333"
       steps="2"
       helper_size="0"
       apply_no_weight="true"
       apply_with_weight="true"
       only_selected="false"
       uniform="false" /><inkscape:path-effect
       effect="bspline"
       id="path-effect10-89"
       is_visible="true"
       lpeversion="1.3"
       weight="33.333333"
       steps="2"
       helper_size="0"
       apply_no_weight="true"
       apply_with_weight="true"
       only_selected="false"
       uniform="false" /><inkscape:path-effect
       effect="spiro"
       id="path-effect8-2"
       is_visible="true"
       lpeversion="1" /><inkscape:path-effect
       effect="bspline"
       id="path-effect6-8"
       is_visible="true"
       lpeversion="1.3"
       weight="33.333333"
       steps="2"
       helper_size="0"
       apply_no_weight="true"
       apply_with_weight="true"
       only_selected="false"
       uniform="false" /><inkscape:path-effect
       effect="bspline"
       id="path-effect5-8"
       is_visible="true"
       lpeversion="1.3"
       weight="33.333333"
       steps="2"
       helper_size="0"
       apply_no_weight="true"
       apply_with_weight="true"
       only_selected="false"
       uniform="false" /><inkscape:path-effect
       effect="bspline"
       id="path-effect4-8"
       is_visible="true"
       lpeversion="1.3"
       weight="33.333333"
       steps="2"
       helper_size="0"
       apply_no_weight="true"
       apply_with_weight="true"
       only_selected="false"
       uniform="false" /><inkscape:path-effect
       effect="bspline"
       id="path-effect2-6"
       is_visible="true"
       lpeversion="1.3"
       weight="33.333333"
       steps="2"
       helper_size="0"
       apply_no_weight="true"
       apply_with_weight="true"
       only_selected="false"
       uniform="false" /><inkscape:path-effect
       effect="spiro"
       id="path-effect3-9"
       is_visible="true"
       lpeversion="1" /><inkscape:path-effect
       effect="bspline"
       id="path-effect1-8"
       is_visible="true"
       lpeversion="1.3"
       weight="33.333333"
       steps="2"
       helper_size="0"
       apply_no_weight="true"
       apply_with_weight="true"
       only_selected="false"
       uniform="false" /><inkscape:path-effect
       effect="bspline"
       id="path-effect11-4"
       is_visible="true"
       lpeversion="1.3"
       weight="33.333333"
       steps="2"
       helper_size="0"
       apply_no_weight="true"
       apply_with_weight="true"
       only_selected="false"
       uniform="false" /><inkscape:path-effect
       effect="bspline"
       id="path-effect10-8"
       is_visible="true"
       lpeversion="1.3"
       weight="33.333333"
       steps="2"
       helper_size="0"
       apply_no_weight="true"
       apply_with_weight="true"
       only_selected="false"
       uniform="false" /><inkscape:path-effect
       effect="spiro"
       id="path-effect8-1-8"
       is_visible="true"
       lpeversion="1" /><inkscape:path-effect
       effect="bspline"
       id="path-effect4-7-3"
       is_visible="true"
       lpeversion="1.3"
       weight="33.333333"
       steps="2"
       helper_size="0"
       apply_no_weight="true"
       apply_with_weight="true"
       only_selected="false"
       uniform="false" /><inkscape:path-effect
       effect="bspline"
       id="path-effect4-2-8"
       is_visible="true"
       lpeversion="1.3"
       weight="33.333333"
       steps="2"
       helper_size="0"
       apply_no_weight="true"
       apply_with_weight="true"
       only_selected="false"
       uniform="false" /><inkscape:path-effect
       effect="bspline"
       id="path-effect4-1-0"
       is_visible="true"
       lpeversion="1.3"
       weight="33.333333"
       steps="2"
       helper_size="0"
       apply_no_weight="true"
       apply_with_weight="true"
       only_selected="false"
       uniform="false" /><inkscape:path-effect
       effect="bspline"
       id="path-effect4-7-5-4"
       is_visible="true"
       lpeversion="1.3"
       weight="33.333333"
       steps="2"
       helper_size="0"
       apply_no_weight="true"
       apply_with_weight="true"
       only_selected="false"
       uniform="false" /><inkscape:path-effect
       effect="bspline"
       id="path-effect4-2-4-8"
       is_visible="true"
       lpeversion="1.3"
       weight="33.333333"
       steps="2"
       helper_size="0"
       apply_no_weight="true"
       apply_with_weight="true"
       only_selected="false"
       uniform="false" /><inkscape:path-effect
       effect="bspline"
       id="path-effect4-1-0-3"
       is_visible="true"
       lpeversion="1.3"
       weight="33.333333"
       steps="2"
       helper_size="0"
       apply_no_weight="true"
       apply_with_weight="true"
       only_selected="false"
       uniform="false" /><inkscape:path-effect
       effect="bspline"
       id="path-effect4-7-5-4-9"
       is_visible="true"
       lpeversion="1.3"
       weight="33.333333"
       steps="2"
       helper_size="0"
       apply_no_weight="true"
       apply_with_weight="true"
       only_selected="false"
       uniform="false" /><inkscape:path-effect
       effect="bspline"
       id="path-effect4-2-4-8-2"
       is_visible="true"
       lpeversion="1.3"
       weight="33.333333"
       steps="2"
       helper_size="0"
       apply_no_weight="true"
       apply_with_weight="true"
       only_selected="false"
       uniform="false" /><inkscape:path-effect
       effect="bspline"
       id="path-effect4-1-0-3-2"
       is_visible="true"
       lpeversion="1.3"
       weight="33.333333"
       steps="2"
       helper_size="0"
       apply_no_weight="true"
       apply_with_weight="true"
       only_selected="false"
       uniform="false" /><inkscape:path-effect
       effect="bspline"
       id="path-effect4-7-5-4-9-8"
       is_visible="true"
       lpeversion="1.3"
       weight="33.333333"
       steps="2"
       helper_size="0"
       apply_no_weight="true"
       apply_with_weight="true"
       only_selected="false"
       uniform="false" /><inkscape:path-effect
       effect="bspline"
       id="path-effect4-2-4-8-2-3"
       is_visible="true"
       lpeversion="1.3"
       weight="33.333333"
       steps="2"
       helper_size="0"
       apply_no_weight="true"
       apply_with_weight="true"
       only_selected="false"
       uniform="false" /><inkscape:path-effect
       effect="spiro"
       id="path-effect3-61"
       is_visible="true"
       lpeversion="1" /><inkscape:path-effect
       effect="bspline"
       id="path-effect1-87"
       is_visible="true"
       lpeversion="1.3"
       weight="33.333333"
       steps="2"
       helper_size="0"
       apply_no_weight="true"
       apply_with_weight="true"
       only_selected="false"
       uniform="false" /><inkscape:path-effect
       effect="bspline"
       id="path-effect11-9"
       is_visible="true"
       lpeversion="1.3"
       weight="33.333333"
       steps="2"
       helper_size="0"
       apply_no_weight="true"
       apply_with_weight="true"
       only_selected="false"
       uniform="false" /><inkscape:path-effect
       effect="bspline"
       id="path-effect10-2"
       is_visible="true"
       lpeversion="1.3"
       weight="33.333333"
       steps="2"
       helper_size="0"
       apply_no_weight="true"
       apply_with_weight="true"
       only_selected="false"
       uniform="false" /><inkscape:path-effect
       effect="spiro"
       id="path-effect8-0"
       is_visible="true"
       lpeversion="1" /><inkscape:path-effect
       effect="spiro"
       id="path-effect6-2"
       is_visible="true"
       lpeversion="1" /><inkscape:path-effect
       effect="bspline"
       id="path-effect7-5"
       is_visible="true"
       lpeversion="1.3"
       weight="33.333333"
       steps="2"
       helper_size="0"
       apply_no_weight="true"
       apply_with_weight="true"
       only_selected="false"
       uniform="false" /><inkscape:path-effect
       effect="bspline"
       id="path-effect9-6"
       is_visible="true"
       lpeversion="1.3"
       weight="33.333333"
       steps="2"
       helper_size="0"
       apply_no_weight="true"
       apply_with_weight="true"
       only_selected="false"
       uniform="false" /><inkscape:path-effect
       effect="bspline"
       id="path-effect2-9"
       is_visible="true"
       lpeversion="1.3"
       weight="33.333333"
       steps="2"
       helper_size="0"
       apply_no_weight="true"
       apply_with_weight="true"
       only_selected="false"
       uniform="false" /><inkscape:path-effect
       effect="spiro"
       id="path-effect3-26"
       is_visible="true"
       lpeversion="1" /><inkscape:path-effect
       effect="bspline"
       id="path-effect1-6"
       is_visible="true"
       lpeversion="1.3"
       weight="33.333333"
       steps="2"
       helper_size="0"
       apply_no_weight="true"
       apply_with_weight="true"
       only_selected="false"
       uniform="false" /><inkscape:path-effect
       effect="bspline"
       id="path-effect11-49"
       is_visible="true"
       lpeversion="1.3"
       weight="33.333333"
       steps="2"
       helper_size="0"
       apply_no_weight="true"
       apply_with_weight="true"
       only_selected="false"
       uniform="false" /><inkscape:path-effect
       effect="bspline"
       id="path-effect10-5"
       is_visible="true"
       lpeversion="1.3"
       weight="33.333333"
       steps="2"
       helper_size="0"
       apply_no_weight="true"
       apply_with_weight="true"
       only_selected="false"
       uniform="false" /><inkscape:path-effect
       effect="spiro"
       id="path-effect8-04"
       is_visible="true"
       lpeversion="1" /><inkscape:path-effect
       effect="bspline"
       id="path-effect7-7"
       is_visible="true"
       lpeversion="1.3"
       weight="33.333333"
       steps="2"
       helper_size="0"
       apply_no_weight="true"
       apply_with_weight="true"
       only_selected="false"
       uniform="false" /><inkscape:path-effect
       effect="bspline"
       id="path-effect9-2"
       is_visible="true"
       lpeversion="1.3"
       weight="33.333333"
       steps="2"
       helper_size="0"
       apply_no_weight="true"
       apply_with_weight="true"
       only_selected="false"
       uniform="false" /><inkscape:path-effect
       effect="bspline"
       id="path-effect7-5-2"
       is_visible="true"
       lpeversion="1.3"
       weight="33.333333"
       steps="2"
       helper_size="0"
       apply_no_weight="true"
       apply_with_weight="true"
       only_selected="false"
       uniform="false" /><inkscape:path-effect
       effect="bspline"
       id="path-effect9-6-6"
       is_visible="true"
       lpeversion="1.3"
       weight="33.333333"
       steps="2"
       helper_size="0"
       apply_no_weight="true"
       apply_with_weight="true"
       only_selected="false"
       uniform="false" /><inkscape:path-effect
       effect="bspline"
       id="path-effect12-1"
       is_visible="true"
       lpeversion="1.3"
       weight="33.333333"
       steps="2"
       helper_size="0"
       apply_no_weight="true"
       apply_with_weight="true"
       only_selected="false"
       uniform="false" /><inkscape:path-effect
       effect="bspline"
       id="path-effect13-0"
       is_visible="true"
       lpeversion="1.3"
       weight="33.333333"
       steps="2"
       helper_size="0"
       apply_no_weight="true"
       apply_with_weight="true"
       only_selected="false"
       uniform="false" /><inkscape:path-effect
       effect="bspline"
       id="path-effect14-6"
       is_visible="true"
       lpeversion="1.3"
       weight="33.333333"
       steps="2"
       helper_size="0"
       apply_no_weight="true"
       apply_with_weight="true"
       only_selected="false"
       uniform="false" /><inkscape:path-effect
       effect="bspline"
       id="path-effect15-1"
       is_visible="true"
       lpeversion="1.3"
       weight="33.333333"
       steps="2"
       helper_size="0"
       apply_no_weight="true"
       apply_with_weight="true"
       only_selected="false"
       uniform="false" /><inkscape:path-effect
       effect="bspline"
       id="path-effect14-6-0"
       is_visible="true"
       lpeversion="1.3"
       weight="33.333333"
       steps="2"
       helper_size="0"
       apply_no_weight="true"
       apply_with_weight="true"
       only_selected="false"
       uniform="false" /><inkscape:path-effect
       effect="bspline"
       id="path-effect15-1-4"
       is_visible="true"
       lpeversion="1.3"
       weight="33.333333"
       steps="2"
       helper_size="0"
       apply_no_weight="true"
       apply_with_weight="true"
       only_selected="false"
       uniform="false" /><inkscape:path-effect
       effect="bspline"
       id="path-effect14-6-3"
       is_visible="true"
       lpeversion="1.3"
       weight="33.333333"
       steps="2"
       helper_size="0"
       apply_no_weight="true"
       apply_with_weight="true"
       only_selected="false"
       uniform="false" /><inkscape:path-effect
       effect="bspline"
       id="path-effect15-1-1"
       is_visible="true"
       lpeversion="1.3"
       weight="33.333333"
       steps="2"
       helper_size="0"
       apply_no_weight="true"
       apply_with_weight="true"
       only_selected="false"
       uniform="false" /></defs><g
     inkscape:groupmode="layer"
     id="layer2"
     inkscape:label="diagram"><g
       inkscape:label="Layer 1"
       inkscape:groupmode="layer"
       id="layer1"><path
         style="fill:none;stroke:#000000;stroke-width:5;stroke-linecap:butt;stroke-linejoin:miter;stroke-dasharray:none;stroke-opacity:1"
         d="m 1008.6971,421.24645 -129.19349,121.37123 14.24674,14.10549 222.47995,-0.49139 14.8364,-13.92686 z"
         id="path1"
         sodipodi:nodetypes="cccccc" /><text
         xml:space="preserve"
         style="font-style:normal;font-weight:normal;font-size:46.6667px;line-height:1.25;font-family:sans-serif;fill:#000000;fill-opacity:1;stroke:none;stroke-width:5;stroke-dasharray:none"
         x="2427.6506"
         y="789.40637"
         id="text1-53-4"><tspan
           sodipodi:role="line"
           id="tspan1-5-5"
           x="2427.6506"
           y="789.40637"
           style="font-style:normal;font-variant:normal;font-weight:normal;font-stretch:normal;font-size:46.6667px;font-family:NewComputerModern10;-inkscape-font-specification:NewComputerModern10;stroke-width:5;stroke-dasharray:none" /></text><path
         style="fill:none;stroke:#000000;stroke-width:5;stroke-linecap:butt;stroke-linejoin:miter;stroke-dasharray:none;stroke-opacity:1"
         d="m 502.66923,1143.316 -129.19349,121.3712 14.24674,14.1055 222.47995,-0.4914 14.8364,-13.9268 z"
         id="path1-5"
         sodipodi:nodetypes="cccccc" /><path
         style="fill:none;stroke:#000000;stroke-width:5;stroke-linecap:butt;stroke-linejoin:miter;stroke-dasharray:none;stroke-opacity:1"
         d="m 496.32443,1353.5333 0.52676,-74.3547"
         id="path4"
         sodipodi:nodetypes="cc" /><rect
         style="fill:none;stroke:#000000;stroke-width:5;stroke-dasharray:none"
         id="rect6"
         width="82.87072"
         height="82.342117"
         x="455.47095"
         y="1355.2759"
         ry="0" /><text
         xml:space="preserve"
         style="font-style:normal;font-weight:normal;font-size:66.6667px;line-height:1.25;font-family:sans-serif;fill:#000000;fill-opacity:1;stroke:none;stroke-width:5;stroke-dasharray:none"
         x="480.19751"
         y="1415.3"
         id="text1-6"><tspan
           sodipodi:role="line"
           id="tspan1-3"
           x="480.19751"
           y="1415.3"
           style="font-style:normal;font-variant:normal;font-weight:normal;font-stretch:normal;font-size:66.6667px;font-family:'UM Typewriter';-inkscape-font-specification:'UM Typewriter';stroke-width:5;stroke-dasharray:none">1</tspan></text><path
         style="fill:none;stroke:#000000;stroke-width:5;stroke-linecap:butt;stroke-linejoin:miter;stroke-dasharray:none;stroke-opacity:1"
         d="m 335.70519,1251.59 c -0.0722,26.8133 -0.14445,53.626 -18.56803,102.1726 -18.42357,48.5466 -55.19634,118.8218 -73.50457,169.2052 -18.30824,50.3835 -18.14974,80.8697 -17.99124,111.3566"
         id="path2"
         inkscape:path-effect="#path-effect7"
         inkscape:original-d="m 335.70519,1251.59 c -0.0722,26.8133 -0.14445,53.626 -0.21668,80.4399 -36.77495,70.2793 -73.54769,140.5545 -110.32266,210.8339 0.1585,30.4875 0.317,60.9737 0.4755,91.4606"
         sodipodi:nodetypes="cccc"
         transform="translate(84.515502,27.198852)" /><path
         style="fill:none;stroke:#000000;stroke-width:5;stroke-linecap:butt;stroke-linejoin:miter;stroke-dasharray:none;stroke-opacity:1"
         d="m 494.02992,1253.4576 c -0.16674,28.2061 -0.33347,56.4116 25.67387,103.7736 26.00735,47.362 78.18549,113.8752 104.19455,154.1317 26.00907,40.2565 25.84569,54.2513 25.68231,68.2464"
         id="path7"
         inkscape:path-effect="#path-effect9"
         inkscape:original-d="m 494.02992,1253.4576 c -0.16674,28.2061 -0.33347,56.4116 -0.50021,84.6182 52.18142,66.5174 104.35957,133.0306 156.54108,199.5481 -0.16339,13.9955 -0.32676,27.9903 -0.49014,41.9854"
         sodipodi:nodetypes="cccc"
         transform="translate(84.515502,27.198852)" /><g
         id="g9"
         transform="translate(84.515502,27.198852)"
         style="stroke-width:5;stroke-dasharray:none"><path
           style="fill:none;stroke:#000000;stroke-width:5;stroke-linecap:butt;stroke-linejoin:miter;stroke-dasharray:none;stroke-opacity:1"
           d="m 225.75874,1633.8219 -129.193495,121.3712 14.246735,14.1055 222.47996,-0.4914 14.8364,-13.9269 z"
           id="path1-5-2"
           sodipodi:nodetypes="cccccc" /><text
           xml:space="preserve"
           style="font-style:normal;font-weight:normal;font-size:66.6667px;line-height:1.25;font-family:sans-serif;fill:#000000;fill-opacity:1;stroke:none;stroke-width:5;stroke-dasharray:none"
           x="172.72426"
           y="1744.2483"
           id="text1-6-0"><tspan
             sodipodi:role="line"
             id="tspan1-3-3"
             x="172.72426"
             y="1744.2483"
             style="font-style:normal;font-variant:normal;font-weight:normal;font-stretch:normal;font-size:66.6667px;font-family:'UM Typewriter';-inkscape-font-specification:'UM Typewriter';stroke-width:5;stroke-dasharray:none">Nil</tspan></text></g><g
         id="g9-6"
         transform="translate(508.22765,-27.462206)"
         style="stroke-width:5;stroke-dasharray:none"><path
           style="fill:none;stroke:#000000;stroke-width:5;stroke-linecap:butt;stroke-linejoin:miter;stroke-dasharray:none;stroke-opacity:1"
           d="m 225.75874,1633.8219 -129.193495,121.3712 14.246735,14.1055 222.47996,-0.4914 14.8364,-13.9269 z"
           id="path1-5-2-3"
           sodipodi:nodetypes="cccccc" /><text
           xml:space="preserve"
           style="font-style:normal;font-weight:normal;font-size:66.6667px;line-height:1.25;font-family:sans-serif;fill:#000000;fill-opacity:1;stroke:none;stroke-width:5;stroke-dasharray:none"
           x="172.72426"
           y="1744.2483"
           id="text1-6-0-2"><tspan
             sodipodi:role="line"
             id="tspan1-3-3-0"
             x="172.72426"
             y="1744.2483"
             style="font-style:normal;font-variant:normal;font-weight:normal;font-stretch:normal;font-size:66.6667px;font-family:'UM Typewriter';-inkscape-font-specification:'UM Typewriter';stroke-width:5;stroke-dasharray:none">Nil</tspan></text></g><text
         xml:space="preserve"
         style="font-style:normal;font-weight:normal;font-size:66.6667px;line-height:1.25;font-family:sans-serif;fill:#000000;fill-opacity:1;stroke:none;stroke-width:5;stroke-dasharray:none"
         x="483.47766"
         y="1245.5409"
         id="text1-6-5"><tspan
           sodipodi:role="line"
           id="tspan1-3-4"
           x="483.47766"
           y="1245.5409"
           style="font-style:normal;font-variant:normal;font-weight:normal;font-stretch:normal;font-size:66.6667px;font-family:'UM Typewriter';-inkscape-font-specification:'UM Typewriter';stroke-width:5;stroke-dasharray:none">B</tspan></text><path
         style="fill:none;stroke:#000000;stroke-width:5;stroke-linecap:butt;stroke-linejoin:miter;stroke-dasharray:none;stroke-opacity:1"
         d="m 1562.0228,1060.7516 -129.1935,121.3712 14.2467,14.1055 222.48,-0.4914 14.8364,-13.9268 z"
         id="path1-5-3"
         sodipodi:nodetypes="cccccc" /><path
         style="fill:none;stroke:#000000;stroke-width:5;stroke-linecap:butt;stroke-linejoin:miter;stroke-dasharray:none;stroke-opacity:1"
         d="m 1555.4902,1275.3219 0.7145,-78.7077"
         id="path4-7"
         sodipodi:nodetypes="cc" /><rect
         style="fill:none;stroke:#000000;stroke-width:5;stroke-dasharray:none"
         id="rect6-4"
         width="82.87072"
         height="82.342117"
         x="1513.9625"
         y="1277.2423"
         ry="0" /><text
         xml:space="preserve"
         style="font-style:normal;font-weight:normal;font-size:66.6667px;line-height:1.25;font-family:sans-serif;fill:#000000;fill-opacity:1;stroke:none;stroke-width:5;stroke-dasharray:none"
         x="1538.6891"
         y="1337.2665"
         id="text1-6-52"><tspan
           sodipodi:role="line"
           id="tspan1-3-5"
           x="1538.6891"
           y="1337.2665"
           style="font-style:normal;font-variant:normal;font-weight:normal;font-stretch:normal;font-size:66.6667px;font-family:'UM Typewriter';-inkscape-font-specification:'UM Typewriter';stroke-width:5;stroke-dasharray:none">3</tspan></text><path
         style="fill:none;stroke:#000000;stroke-width:5;stroke-linecap:butt;stroke-linejoin:miter;stroke-dasharray:none;stroke-opacity:1"
         d="m 339.70286,1251.6317 c 0.33345,27.1806 0.6669,54.3606 -18.42302,102.9004 -19.08993,48.5397 -57.60075,118.4335 -76.77812,168.6264 -19.17737,50.1928 -19.01887,80.679 -18.86037,111.1659"
         id="path2-4"
         inkscape:path-effect="#path-effect7-5"
         inkscape:original-d="m 339.70286,1251.6317 c 0.33345,27.1806 0.6669,54.3606 1.00036,81.5418 -38.51332,69.8983 -77.02413,139.7921 -115.53737,209.6903 0.1585,30.4875 0.317,60.9737 0.4755,91.4606"
         sodipodi:nodetypes="cccc"
         transform="translate(1143.869,-55.36547)" /><path
         style="fill:none;stroke:#000000;stroke-width:5;stroke-linecap:butt;stroke-linejoin:miter;stroke-dasharray:none;stroke-opacity:1"
         d="m 494.43555,1248.8091 c -0.16674,28.2061 -0.33347,56.4116 28.27372,91.7907 28.60718,35.3791 85.98453,77.9279 114.69191,114.0873 28.70737,36.1594 28.74073,65.9249 28.77409,95.6911"
         id="path7-7"
         inkscape:path-effect="#path-effect9-6"
         inkscape:original-d="m 494.43555,1248.8091 c -0.16673,28.2061 -0.33347,56.4116 -0.50021,84.6182 57.38111,42.5516 114.75846,85.1004 172.13985,127.6522 0.0334,29.767 0.0667,59.5325 0.10008,89.2987"
         sodipodi:nodetypes="cccc"
         transform="translate(1143.869,-55.36547)" /><g
         id="g9-4"
         transform="translate(1143.869,-55.36547)"
         style="stroke-width:5;stroke-dasharray:none"><path
           style="fill:none;stroke:#000000;stroke-width:5;stroke-linecap:butt;stroke-linejoin:miter;stroke-dasharray:none;stroke-opacity:1"
           d="m 225.75874,1633.8219 -129.193495,121.3712 14.246735,14.1055 222.47996,-0.4914 14.8364,-13.9269 z"
           id="path1-5-2-4"
           sodipodi:nodetypes="cccccc" /><text
           xml:space="preserve"
           style="font-style:normal;font-weight:normal;font-size:66.6667px;line-height:1.25;font-family:sans-serif;fill:#000000;fill-opacity:1;stroke:none;stroke-width:5;stroke-dasharray:none"
           x="172.72426"
           y="1744.2483"
           id="text1-6-0-3"><tspan
             sodipodi:role="line"
             id="tspan1-3-3-07"
             x="172.72426"
             y="1744.2483"
             style="font-style:normal;font-variant:normal;font-weight:normal;font-stretch:normal;font-size:66.6667px;font-family:'UM Typewriter';-inkscape-font-specification:'UM Typewriter';stroke-width:5;stroke-dasharray:none">Nil</tspan></text></g><g
         id="g9-6-8"
         transform="translate(1584.2498,-139.06447)"
         style="stroke-width:5;stroke-dasharray:none"><path
           style="fill:none;stroke:#000000;stroke-width:5;stroke-linecap:butt;stroke-linejoin:miter;stroke-dasharray:none;stroke-opacity:1"
           d="m 225.75874,1633.8219 -129.193495,121.3712 14.246735,14.1055 222.47996,-0.4914 14.8364,-13.9269 z"
           id="path1-5-2-3-6"
           sodipodi:nodetypes="cccccc" /><text
           xml:space="preserve"
           style="font-style:normal;font-weight:normal;font-size:66.6667px;line-height:1.25;font-family:sans-serif;fill:#000000;fill-opacity:1;stroke:none;stroke-width:5;stroke-dasharray:none"
           x="172.72426"
           y="1744.2483"
           id="text1-6-0-2-8"><tspan
             sodipodi:role="line"
             id="tspan1-3-3-0-8"
             x="172.72426"
             y="1744.2483"
             style="font-style:normal;font-variant:normal;font-weight:normal;font-stretch:normal;font-size:66.6667px;font-family:'UM Typewriter';-inkscape-font-specification:'UM Typewriter';stroke-width:5;stroke-dasharray:none">Nil</tspan></text></g><text
         xml:space="preserve"
         style="font-style:normal;font-weight:normal;font-size:66.6667px;line-height:1.25;font-family:sans-serif;fill:#000000;fill-opacity:1;stroke:none;stroke-width:5;stroke-dasharray:none"
         x="1542.8313"
         y="1162.9766"
         id="text1-6-5-4"><tspan
           sodipodi:role="line"
           id="tspan1-3-4-3"
           x="1542.8313"
           y="1162.9766"
           style="font-style:normal;font-variant:normal;font-weight:normal;font-stretch:normal;font-size:66.6667px;font-family:'UM Typewriter';-inkscape-font-specification:'UM Typewriter';stroke-width:5;stroke-dasharray:none">B</tspan></text><text
         xml:space="preserve"
         style="font-style:normal;font-weight:normal;font-size:66.6667px;line-height:1.25;font-family:sans-serif;fill:#000000;fill-opacity:1;stroke:none;stroke-width:5;stroke-dasharray:none"
         x="989.91089"
         y="520.25903"
         id="text1-6-5-4-6"><tspan
           sodipodi:role="line"
           id="tspan1-3-4-3-4"
           x="989.91089"
           y="520.25903"
           style="font-style:normal;font-variant:normal;font-weight:normal;font-stretch:normal;font-size:66.6667px;font-family:'UM Typewriter';-inkscape-font-specification:'UM Typewriter';stroke-width:5;stroke-dasharray:none">B</tspan></text><path
         style="fill:none;stroke:#000000;stroke-width:5;stroke-linecap:butt;stroke-linejoin:miter;stroke-dasharray:none;stroke-opacity:1"
         d="m 1003.9897,637.24531 0.8885,-79.11961"
         id="path4-7-2"
         sodipodi:nodetypes="cc" /><rect
         style="fill:none;stroke:#000000;stroke-width:5;stroke-dasharray:none"
         id="rect6-4-0"
         width="82.87072"
         height="82.342117"
         x="963.60004"
         y="637.84106"
         ry="0" /><text
         xml:space="preserve"
         style="font-style:normal;font-weight:normal;font-size:66.6667px;line-height:1.25;font-family:sans-serif;fill:#000000;fill-opacity:1;stroke:none;stroke-width:5;stroke-dasharray:none"
         x="988.3266"
         y="697.86523"
         id="text1-6-52-6"><tspan
           sodipodi:role="line"
           id="tspan1-3-5-8"
           x="988.3266"
           y="697.86523"
           style="font-style:normal;font-variant:normal;font-weight:normal;font-stretch:normal;font-size:66.6667px;font-family:'UM Typewriter';-inkscape-font-specification:'UM Typewriter';stroke-width:5;stroke-dasharray:none">2</tspan></text><path
         style="fill:none;stroke:#000000;stroke-width:5;stroke-linecap:butt;stroke-linejoin:miter;stroke-dasharray:none;stroke-opacity:1"
         d="m 933.54477,558.1871 c 0.0229,40.58662 0.0458,81.17242 -71.84585,157.12562 -71.89165,75.9532 -215.68913,187.26544 -287.48726,264.55961 -71.79813,77.29417 -71.5881,120.56177 -71.37807,163.83017"
         id="path9"
         inkscape:path-effect="#path-effect12"
         inkscape:original-d="m 933.54477,558.1871 c 0.0229,40.58662 0.0458,81.17242 0.0687,121.75985 -143.8062,111.31897 -287.60369,222.6312 -431.40997,333.95025 0.21003,43.2693 0.42006,86.5369 0.63009,129.8053"
         sodipodi:nodetypes="cccc" /><path
         style="fill:none;stroke:#000000;stroke-width:5;stroke-linecap:butt;stroke-linejoin:miter;stroke-dasharray:none;stroke-opacity:1"
         d="m 1077.3362,557.36147 c -0.6724,33.21552 -1.3447,66.43036 79.7241,131.37492 81.0689,64.94457 243.8687,161.61139 324.9825,228.94607 81.1139,67.33467 80.5308,105.32874 79.9478,143.32404"
         id="path12"
         inkscape:path-effect="#path-effect13"
         inkscape:original-d="m 1077.3362,557.36147 c -0.6724,33.21552 -1.3447,66.43036 -2.0171,99.64654 162.8101,96.67296 325.6099,193.33976 488.4206,290.01308 -0.583,37.99604 -1.1661,75.99011 -1.7491,113.98541"
         sodipodi:nodetypes="cccc" /><path
         style="fill:none;stroke:#000000;stroke-width:5;stroke-linecap:butt;stroke-linejoin:miter;stroke-dasharray:none;stroke-opacity:1"
         d="m 1008.675,422.00492 c -0,-50.17184 -0.01,-100.34375 -0.01,-150.51565"
         id="path14"
         inkscape:path-effect="#path-effect14"
         inkscape:original-d="m 1008.675,422.00492 c 0,-50.17184 -0.01,-100.34375 -0.01,-150.51565"
         sodipodi:nodetypes="cc" /><path
         style="fill:none;stroke:#000000;stroke-width:5;stroke-linecap:butt;stroke-linejoin:miter;stroke-dasharray:none;stroke-opacity:1"
         d="m 897.27931,277.36167 c 79.51038,-0.0327 159.02079,-0.0653 238.53119,-0.098"
         id="path3"
         inkscape:path-effect="#path-effect15"
         inkscape:original-d="m 897.27931,277.36167 c 79.51038,-0.0327 159.02079,-0.0653 238.53119,-0.098"
         sodipodi:nodetypes="cc"
         transform="translate(-7.7390689,-3.8604867)" /><g
         id="g2"
         transform="matrix(0.25080079,0,0,0.25080079,962.10589,1881.5568)"
         style="stroke-width:19.93614135;stroke-dasharray:none"><path
           style="fill:none;stroke:#000000;stroke-width:19.93614135;stroke-dasharray:none"
           id="path1-7"
           sodipodi:type="arc"
           sodipodi:cx="457.7012"
           sodipodi:cy="334.54214"
           sodipodi:rx="159.94626"
           sodipodi:ry="142.35028"
           sodipodi:start="3.1321942"
           sodipodi:end="0.03270313"
           sodipodi:arc-type="arc"
           d="m 297.76201,335.88 a 159.94626,142.35028 0 0 1 80.60901,-124.94541 159.94626,142.35028 0 0 1 161.87525,1.67879 159.94626,142.35028 0 0 1 77.31567,126.58323"
           sodipodi:open="true" /><path
           style="fill:none;stroke:#000000;stroke-width:19.93614135;stroke-linecap:butt;stroke-linejoin:miter;stroke-dasharray:none;stroke-opacity:1"
           d="m 701.23564,267.89202 -83.54956,71.40779 -86.39445,-65.00624"
           id="path2-1" /></g><path
         style="fill:none;stroke:#000000;stroke-width:5;stroke-linecap:butt;stroke-linejoin:miter;stroke-dasharray:none;stroke-opacity:1"
         d="m 559.19502,2978.4336 -129.19349,121.3712 14.24674,14.1055 222.47995,-0.4914 14.8364,-13.9268 z"
         id="path1-5-4"
         sodipodi:nodetypes="cccccc" /><path
         style="fill:none;stroke:#000000;stroke-width:5;stroke-linecap:butt;stroke-linejoin:miter;stroke-dasharray:none;stroke-opacity:1"
         d="m 552.85022,3188.6509 0.52676,-74.3547"
         id="path4-9"
         sodipodi:nodetypes="cc" /><rect
         style="fill:none;stroke:#000000;stroke-width:5;stroke-dasharray:none"
         id="rect6-0"
         width="82.87072"
         height="82.342117"
         x="511.99673"
         y="3190.3933"
         ry="0" /><text
         xml:space="preserve"
         style="font-style:normal;font-weight:normal;font-size:66.6667px;line-height:1.25;font-family:sans-serif;fill:#000000;fill-opacity:1;stroke:none;stroke-width:5;stroke-dasharray:none"
         x="536.72333"
         y="3250.4175"
         id="text1-6-9"><tspan
           sodipodi:role="line"
           id="tspan1-3-1"
           x="536.72333"
           y="3250.4175"
           style="font-style:normal;font-variant:normal;font-weight:normal;font-stretch:normal;font-size:66.6667px;font-family:'UM Typewriter';-inkscape-font-specification:'UM Typewriter';stroke-width:5;stroke-dasharray:none">1</tspan></text><path
         style="fill:none;stroke:#000000;stroke-width:5;stroke-linecap:butt;stroke-linejoin:miter;stroke-dasharray:none;stroke-opacity:1"
         d="m 335.70519,1251.59 c -0.0722,26.8133 -0.14445,53.626 -18.56803,102.1726 -18.42357,48.5466 -55.19634,118.8218 -73.50457,169.2052 -18.30824,50.3835 -18.14974,80.8697 -17.99124,111.3566"
         id="path2-7"
         inkscape:path-effect="#path-effect7-7"
         inkscape:original-d="m 335.70519,1251.59 c -0.0722,26.8133 -0.14445,53.626 -0.21668,80.4399 -36.77495,70.2793 -73.54769,140.5545 -110.32266,210.8339 0.1585,30.4875 0.317,60.9737 0.4755,91.4606"
         sodipodi:nodetypes="cccc"
         transform="translate(141.04129,1862.3165)" /><path
         style="fill:none;stroke:#000000;stroke-width:5;stroke-linecap:butt;stroke-linejoin:miter;stroke-dasharray:none;stroke-opacity:1"
         d="m 494.02992,1253.4576 c -0.16674,28.2061 -0.33347,56.4116 25.67387,103.7736 26.00735,47.362 78.18549,113.8752 104.19455,154.1317 26.00907,40.2565 25.84569,54.2513 25.68231,68.2464"
         id="path7-71"
         inkscape:path-effect="#path-effect9-2"
         inkscape:original-d="m 494.02992,1253.4576 c -0.16674,28.2061 -0.33347,56.4116 -0.50021,84.6182 52.18142,66.5174 104.35957,133.0306 156.54108,199.5481 -0.16339,13.9955 -0.32676,27.9903 -0.49014,41.9854"
         sodipodi:nodetypes="cccc"
         transform="translate(141.04129,1862.3165)" /><g
         id="g9-1"
         transform="translate(141.04129,1862.3165)"
         style="stroke-width:5;stroke-dasharray:none"><path
           style="fill:none;stroke:#000000;stroke-width:5;stroke-linecap:butt;stroke-linejoin:miter;stroke-dasharray:none;stroke-opacity:1"
           d="m 225.75874,1633.8219 -129.193495,121.3712 14.246735,14.1055 222.47996,-0.4914 14.8364,-13.9269 z"
           id="path1-5-2-5"
           sodipodi:nodetypes="cccccc" /><text
           xml:space="preserve"
           style="font-style:normal;font-weight:normal;font-size:66.6667px;line-height:1.25;font-family:sans-serif;fill:#000000;fill-opacity:1;stroke:none;stroke-width:5;stroke-dasharray:none"
           x="172.72426"
           y="1744.2483"
           id="text1-6-0-9"><tspan
             sodipodi:role="line"
             id="tspan1-3-3-7"
             x="172.72426"
             y="1744.2483"
             style="font-style:normal;font-variant:normal;font-weight:normal;font-stretch:normal;font-size:66.6667px;font-family:'UM Typewriter';-inkscape-font-specification:'UM Typewriter';stroke-width:5;stroke-dasharray:none">Nil</tspan></text></g><g
         id="g9-6-7"
         transform="translate(564.75344,1807.6554)"
         style="stroke-width:5;stroke-dasharray:none"><path
           style="fill:none;stroke:#000000;stroke-width:5;stroke-linecap:butt;stroke-linejoin:miter;stroke-dasharray:none;stroke-opacity:1"
           d="m 225.75874,1633.8219 -129.193495,121.3712 14.246735,14.1055 222.47996,-0.4914 14.8364,-13.9269 z"
           id="path1-5-2-3-67"
           sodipodi:nodetypes="cccccc" /><text
           xml:space="preserve"
           style="font-style:normal;font-weight:normal;font-size:66.6667px;line-height:1.25;font-family:sans-serif;fill:#000000;fill-opacity:1;stroke:none;stroke-width:5;stroke-dasharray:none"
           x="172.72426"
           y="1744.2483"
           id="text1-6-0-2-3"><tspan
             sodipodi:role="line"
             id="tspan1-3-3-0-6"
             x="172.72426"
             y="1744.2483"
             style="font-style:normal;font-variant:normal;font-weight:normal;font-stretch:normal;font-size:66.6667px;font-family:'UM Typewriter';-inkscape-font-specification:'UM Typewriter';stroke-width:5;stroke-dasharray:none">Nil</tspan></text></g><text
         xml:space="preserve"
         style="font-style:normal;font-weight:normal;font-size:66.6667px;line-height:1.25;font-family:sans-serif;fill:#000000;fill-opacity:1;stroke:none;stroke-width:5;stroke-dasharray:none"
         x="540.00348"
         y="3080.6584"
         id="text1-6-5-5"><tspan
           sodipodi:role="line"
           id="tspan1-3-4-6"
           x="540.00348"
           y="3080.6584"
           style="font-style:normal;font-variant:normal;font-weight:normal;font-stretch:normal;font-size:66.6667px;font-family:'UM Typewriter';-inkscape-font-specification:'UM Typewriter';stroke-width:5;stroke-dasharray:none">B</tspan></text><path
         style="fill:none;stroke:#000000;stroke-width:5;stroke-linecap:butt;stroke-linejoin:miter;stroke-dasharray:none;stroke-opacity:1"
         d="m 1618.5486,2895.8692 -129.1935,121.3712 14.2467,14.1055 222.48,-0.4914 14.8364,-13.9268 z"
         id="path1-5-3-3"
         sodipodi:nodetypes="cccccc" /><path
         style="fill:none;stroke:#000000;stroke-width:5;stroke-linecap:butt;stroke-linejoin:miter;stroke-dasharray:none;stroke-opacity:1"
         d="m 1612.016,3110.4395 0.7145,-78.7077"
         id="path4-7-9"
         sodipodi:nodetypes="cc" /><rect
         style="fill:none;stroke:#000000;stroke-width:5;stroke-dasharray:none"
         id="rect6-4-4"
         width="82.87072"
         height="82.342117"
         x="1570.4884"
         y="3112.3599"
         ry="0" /><text
         xml:space="preserve"
         style="font-style:normal;font-weight:normal;font-size:66.6667px;line-height:1.25;font-family:sans-serif;fill:#000000;fill-opacity:1;stroke:none;stroke-width:5;stroke-dasharray:none"
         x="1595.215"
         y="3172.384"
         id="text1-6-52-8"><tspan
           sodipodi:role="line"
           id="tspan1-3-5-1"
           x="1595.215"
           y="3172.384"
           style="font-style:normal;font-variant:normal;font-weight:normal;font-stretch:normal;font-size:66.6667px;font-family:'UM Typewriter';-inkscape-font-specification:'UM Typewriter';stroke-width:5;stroke-dasharray:none">3</tspan></text><path
         style="fill:none;stroke:#000000;stroke-width:5;stroke-linecap:butt;stroke-linejoin:miter;stroke-dasharray:none;stroke-opacity:1"
         d="m 339.70286,1251.6317 c 0.33345,27.1806 0.6669,54.3606 -18.42302,102.9004 -19.08993,48.5397 -57.60075,118.4335 -76.77812,168.6264 -19.17737,50.1928 -19.01887,80.679 -18.86037,111.1659"
         id="path2-4-2"
         inkscape:path-effect="#path-effect7-5-2"
         inkscape:original-d="m 339.70286,1251.6317 c 0.33345,27.1806 0.6669,54.3606 1.00036,81.5418 -38.51332,69.8983 -77.02413,139.7921 -115.53737,209.6903 0.1585,30.4875 0.317,60.9737 0.4755,91.4606"
         sodipodi:nodetypes="cccc"
         transform="translate(1200.3948,1779.7521)" /><path
         style="fill:none;stroke:#000000;stroke-width:5;stroke-linecap:butt;stroke-linejoin:miter;stroke-dasharray:none;stroke-opacity:1"
         d="m 494.43555,1248.8091 c -0.16674,28.2061 -0.33347,56.4116 28.27372,91.7907 28.60718,35.3791 85.98453,77.9279 114.69191,114.0873 28.70737,36.1594 28.74073,65.9249 28.77409,95.6911"
         id="path7-7-9"
         inkscape:path-effect="#path-effect9-6-6"
         inkscape:original-d="m 494.43555,1248.8091 c -0.16673,28.2061 -0.33347,56.4116 -0.50021,84.6182 57.38111,42.5516 114.75846,85.1004 172.13985,127.6522 0.0334,29.767 0.0667,59.5325 0.10008,89.2987"
         sodipodi:nodetypes="cccc"
         transform="translate(1200.3948,1779.7521)" /><g
         id="g9-4-3"
         transform="translate(1200.3948,1779.7521)"
         style="stroke-width:5;stroke-dasharray:none"><path
           style="fill:none;stroke:#000000;stroke-width:5;stroke-linecap:butt;stroke-linejoin:miter;stroke-dasharray:none;stroke-opacity:1"
           d="m 225.75874,1633.8219 -129.193495,121.3712 14.246735,14.1055 222.47996,-0.4914 14.8364,-13.9269 z"
           id="path1-5-2-4-9"
           sodipodi:nodetypes="cccccc" /><text
           xml:space="preserve"
           style="font-style:normal;font-weight:normal;font-size:66.6667px;line-height:1.25;font-family:sans-serif;fill:#000000;fill-opacity:1;stroke:none;stroke-width:5;stroke-dasharray:none"
           x="172.72426"
           y="1744.2483"
           id="text1-6-0-3-0"><tspan
             sodipodi:role="line"
             id="tspan1-3-3-07-8"
             x="172.72426"
             y="1744.2483"
             style="font-style:normal;font-variant:normal;font-weight:normal;font-stretch:normal;font-size:66.6667px;font-family:'UM Typewriter';-inkscape-font-specification:'UM Typewriter';stroke-width:5;stroke-dasharray:none">Nil</tspan></text></g><g
         id="g9-6-8-8"
         transform="translate(1640.7756,1696.0531)"
         style="stroke-width:5;stroke-dasharray:none"><path
           style="fill:none;stroke:#000000;stroke-width:5;stroke-linecap:butt;stroke-linejoin:miter;stroke-dasharray:none;stroke-opacity:1"
           d="m 225.75874,1633.8219 -129.193495,121.3712 14.246735,14.1055 222.47996,-0.4914 14.8364,-13.9269 z"
           id="path1-5-2-3-6-5"
           sodipodi:nodetypes="cccccc" /><text
           xml:space="preserve"
           style="font-style:normal;font-weight:normal;font-size:66.6667px;line-height:1.25;font-family:sans-serif;fill:#000000;fill-opacity:1;stroke:none;stroke-width:5;stroke-dasharray:none"
           x="172.72426"
           y="1744.2483"
           id="text1-6-0-2-8-0"><tspan
             sodipodi:role="line"
             id="tspan1-3-3-0-8-9"
             x="172.72426"
             y="1744.2483"
             style="font-style:normal;font-variant:normal;font-weight:normal;font-stretch:normal;font-size:66.6667px;font-family:'UM Typewriter';-inkscape-font-specification:'UM Typewriter';stroke-width:5;stroke-dasharray:none">Nil</tspan></text></g><text
         xml:space="preserve"
         style="font-style:normal;font-weight:normal;font-size:66.6667px;line-height:1.25;font-family:sans-serif;fill:#000000;fill-opacity:1;stroke:none;stroke-width:5;stroke-dasharray:none"
         x="1599.3572"
         y="2998.094"
         id="text1-6-5-4-63"><tspan
           sodipodi:role="line"
           id="tspan1-3-4-3-8"
           x="1599.3572"
           y="2998.094"
           style="font-style:normal;font-variant:normal;font-weight:normal;font-stretch:normal;font-size:66.6667px;font-family:'UM Typewriter';-inkscape-font-specification:'UM Typewriter';stroke-width:5;stroke-dasharray:none">B</tspan></text><path
         style="fill:none;stroke:#000000;stroke-width:5;stroke-linecap:butt;stroke-linejoin:miter;stroke-dasharray:none;stroke-opacity:1"
         d="m 1060.5155,2472.3629 0.8885,-79.1196"
         id="path4-7-2-1"
         sodipodi:nodetypes="cc" /><rect
         style="fill:none;stroke:#000000;stroke-width:5;stroke-dasharray:none"
         id="rect6-4-0-1"
         width="82.87072"
         height="82.342117"
         x="1020.1258"
         y="2472.9585"
         ry="0" /><text
         xml:space="preserve"
         style="font-style:normal;font-weight:normal;font-size:66.6667px;line-height:1.25;font-family:sans-serif;fill:#000000;fill-opacity:1;stroke:none;stroke-width:5;stroke-dasharray:none"
         x="1044.8524"
         y="2532.9827"
         id="text1-6-52-6-5"><tspan
           sodipodi:role="line"
           id="tspan1-3-5-8-9"
           x="1044.8524"
           y="2532.9827"
           style="font-style:normal;font-variant:normal;font-weight:normal;font-stretch:normal;font-size:66.6667px;font-family:'UM Typewriter';-inkscape-font-specification:'UM Typewriter';stroke-width:5;stroke-dasharray:none">2</tspan></text><path
         style="fill:none;stroke:#000000;stroke-width:5;stroke-linecap:butt;stroke-linejoin:miter;stroke-dasharray:none;stroke-opacity:1"
         d="m 564.29464,870.75799 c 0.0229,40.58662 0.0458,81.17242 -10.30293,105.02944 -10.34873,23.85701 -31.06784,30.98317 -41.32301,56.18117 -10.25517,25.1979 -10.04514,68.4655 -9.83511,111.7339"
         id="path9-8"
         inkscape:path-effect="#path-effect12-1"
         inkscape:original-d="m 564.29464,870.75799 c 0.0229,40.58662 0.0458,81.17242 0.0687,121.75985 -20.72036,7.1266 -41.43947,14.25276 -62.15984,21.37936 0.21003,43.2693 0.42006,86.5369 0.63009,129.8053"
         sodipodi:nodetypes="cccc"
         transform="translate(56.525788,1835.1176)" /><path
         style="fill:none;stroke:#000000;stroke-width:5;stroke-linecap:butt;stroke-linejoin:miter;stroke-dasharray:none;stroke-opacity:1"
         d="m 1444.6521,814.4138 c -0.6724,33.21552 -1.3447,66.43036 18.5036,88.53202 19.8483,22.10166 60.2148,33.0881 80.1079,57.5797 19.8931,24.49161 19.31,62.48568 18.727,100.48098"
         id="path12-4"
         inkscape:path-effect="#path-effect13-0"
         inkscape:original-d="m 1444.6521,814.4138 c -0.6724,33.21552 -1.3447,66.43036 -2.0171,99.64654 40.369,10.98714 80.7355,21.97358 121.1047,32.96075 -0.583,37.99604 -1.1661,75.99011 -1.7491,113.98541"
         sodipodi:nodetypes="cccc"
         transform="translate(56.525788,1835.1176)" /><path
         style="fill:none;stroke:#000000;stroke-width:5;stroke-linecap:butt;stroke-linejoin:miter;stroke-dasharray:none;stroke-opacity:1"
         d="m 1008.675,422.00492 c -0,-50.17184 -0.01,-100.34375 -0.01,-150.51565"
         id="path14-8"
         inkscape:path-effect="#path-effect14-6"
         inkscape:original-d="m 1008.675,422.00492 c 0,-50.17184 -0.01,-100.34375 -0.01,-150.51565"
         sodipodi:nodetypes="cc"
         transform="translate(52.737562,1973.2779)" /><path
         style="fill:none;stroke:#000000;stroke-width:5;stroke-linecap:butt;stroke-linejoin:miter;stroke-dasharray:none;stroke-opacity:1"
         d="m 897.27931,277.36167 c 79.51038,-0.0327 159.02079,-0.0653 238.53119,-0.098"
         id="path3-1"
         inkscape:path-effect="#path-effect15-1"
         inkscape:original-d="m 897.27931,277.36167 c 79.51038,-0.0327 159.02079,-0.0653 238.53119,-0.098"
         sodipodi:nodetypes="cc"
         transform="translate(44.998492,1969.4174)" /><path
         style="fill:none;stroke:#000000;stroke-width:5;stroke-linecap:butt;stroke-linejoin:miter;stroke-dasharray:none;stroke-opacity:1"
         d="m 897.27931,277.36167 c 79.51038,-0.0327 159.02079,-0.0653 238.53119,-0.098"
         id="path3-1-4"
         inkscape:path-effect="#path-effect15-1-4"
         inkscape:original-d="m 897.27931,277.36167 c 79.51038,-0.0327 159.02079,-0.0653 238.53119,-0.098"
         sodipodi:nodetypes="cc"
         transform="translate(-395.57754,2428.1293)" /><path
         style="fill:none;stroke:#000000;stroke-width:5;stroke-linecap:butt;stroke-linejoin:miter;stroke-dasharray:none;stroke-opacity:1"
         d="m 897.27931,277.36167 c 79.51038,-0.0327 159.02079,-0.0653 238.53119,-0.098"
         id="path3-1-9"
         inkscape:path-effect="#path-effect15-1-1"
         inkscape:original-d="m 897.27931,277.36167 c 79.51038,-0.0327 159.02079,-0.0653 238.53119,-0.098"
         sodipodi:nodetypes="cc"
         transform="translate(484.70454,2372.423)" /></g></g></svg>
